data/scopedata/500mv scope.csv

#Digilent WaveForms Oscilloscope Acquisition
#Device Name: Discovery2
#Serial Number: SN:210321B81678
#Date Time: 2025-08-30 13:09:02.656
#Sample rate: 800000Hz
#Samples: 8192
#Trigger: Source: Channel 1 Type: Edge Condition: Rising Level: 0 V Hyst.: Auto HoldOff: 0 s
#Channel 1: Range: 200 mV/div Offset: 0 V Sample Mode: Average
#Channel 2: Range: 200 mV/div Offset: -2 V Sample Mode: Average
#Wavegen Channel 1: Running
#Mode: Simple
#Type: Sine
#Frequency: 1 kHz
#Period: 1 ms
#Amplitude: 500 mV
#Offset: 0 V
#Symmetry: 50 %
#Phase: 0 °
#Power Supplies: ON
#Positive Supply: ON
#Voltage: 5 V
#Negative Supply: ON
#Voltage: -2 V

#2,4kHz
#raw
#
Time (s),Channel 1 (V),Channel 2 (V)
-0.005119615384615385,-0.3083104119557914,1.647800429982978
-0.005118365384615384,-0.3059881978892897,1.649785738467909
-0.005117115384615384,-0.3030024940895005,1.653094585942794
-0.005115865384615385,-0.300348535156357,1.655410779175212
-0.005114615384615384,-0.2996850454230707,1.656734318165166
-0.005113365384615385,-0.2963675967566397,1.659712280892562
-0.005112115384615384,-0.2937136378234949,1.662690243619958
-0.005110865384615385,-0.2920549134902801,1.663682897862423
-0.005109615384615384,-0.2884057199572052,1.667322630084796
-0.005108365384615384,-0.286083505890702,1.669307938569729
-0.005107115384615384,-0.2827660572242724,1.672616786044612
-0.005105865384615384,-0.2804438431577695,1.67526386402452
-0.005104615384615385,-0.2777898842246259,1.678241826751915
-0.005103365384615384,-0.2751359252914811,1.680888904731823
-0.005102115384615385,-0.2711549868917638,1.683205097964242
-0.005100865384615384,-0.2691645176919052,1.686183060691638
-0.005099615384615385,-0.2675057933586905,1.688499253924056
-0.005098365384615384,-0.2635248549589724,1.691808101398941
-0.005097115384615384,-0.2621978754923985,1.694124294631362
-0.005095865384615384,-0.258880426825969,1.69644048786378
-0.005094615384615384,-0.254567743559607,1.699749335338666
-0.005093365384615385,-0.2509185500265345,1.704712606550991
-0.005092115384615384,-0.245942377026888,1.709675877763317
-0.005090865384615385,-0.2429566732271014,1.713646494733177
-0.005089615384615384,-0.2383122450940966,1.716624457460575
-0.005088365384615385,-0.2359900310275959,1.719933304935458
-0.005087115384615384,-0.2336678169610931,1.721587728672902
-0.005085865384615384,-0.2313456028945899,1.724234806652811
-0.005084615384615384,-0.2280281542281603,1.727874538875182
-0.005083365384615384,-0.2257059401616586,1.730852501602578
-0.005082115384615385,-0.2223884914952276,1.733499579582486
-0.005080865384615384,-0.217412318495581,1.737470196552347
-0.005079615384615385,-0.2170805736289381,1.738462850794812
-0.005078365384615384,-0.2130996352292207,1.74110992877472
-0.005077115384615385,-0.2101139314294341,1.744418776249603
-0.005075865384615384,-0.2081234622295741,1.748058508471977
-0.005074615384615384,-0.2048060135631417,1.751036471199375
-0.005073365384615384,-0.2018203097633552,1.755337972916723
-0.005072115384615384,-0.1994980956968535,1.7559997424117
-0.005070865384615385,-0.1958489021637793,1.759308589886585
-0.005069615384615384,-0.1925314534973483,1.762617437361469
-0.005068365384615385,-0.1882187702309899,1.767249823826305
-0.005067115384615384,-0.1852330664312,1.771551325543657
-0.005065865384615384,-0.1832425972313397,1.773205749281101
-0.005064615384615384,-0.1795934036982672,1.776514596755984
-0.005063365384615384,-0.1776029344984072,1.779161674735892
-0.005062115384615385,-0.1746172306986207,1.781808752715799
-0.005060865384615384,-0.1696410576989741,1.784786715443195
-0.005059615384615385,-0.1669870987658293,1.789088217160545
-0.005058365384615384,-0.1643331398326845,1.791073525645476
-0.005057115384615385,-0.1610156911662549,1.796698566352776
-0.005055865384615384,-0.1576982424998224,1.799345644332687
-0.005054615384615384,-0.1543807938333885,1.801992722312597
-0.005053365384615384,-0.1480776413671724,1.808279532514875
-0.005052115384615384,-0.1440967029674535,1.81191926473725
-0.005050865384615385,-0.140447509434381,1.817213420697063
-0.005049615384615384,-0.1361348261680206,1.821184037666924
-0.005048365384615385,-0.1324856326349482,1.825154654636784
-0.005047115384615384,-0.1271777147686569,1.829125271606647
-0.005045865384615385,-0.1241920109688703,1.83243411908153
-0.005044615384615384,-0.1208745623024379,1.836404736051393
-0.005043365384615384,-0.1188840931025773,1.839051814031302
-0.005042115384615384,-0.1145714098362189,1.842691546253673
-0.005040865384615384,-0.1105904714365017,1.845669508981069
-0.005039615384615385,-0.1086000022366431,1.848647471708465
-0.005038365384615384,-0.1059460433034982,1.851625434435861
-0.005037115384615385,-0.1019651049037828,1.856588705648186
-0.005035865384615384,-0.09931114597063614,1.859235783628095
-0.005034615384615385,-0.09632544217084958,1.863206400597955
-0.005033365384615384,-0.09201275890448787,1.865853478577864
-0.005032115384615384,-0.08869531023805594,1.869493210800239
-0.005030865384615384,-0.08670484103819821,1.872471173527633
-0.005029615384615384,-0.08272390263848096,1.876441790497495
-0.005028365384615385,-0.07973819883869303,1.879750637972379
-0.005027115384615384,-0.07642075017226199,1.88173594645731
-0.005025865384615385,-0.07310330150583247,1.886037448174658
-0.005024615384615384,-0.06945410797275682,1.890338949892009
-0.005023365384615384,-0.06613665930632383,1.893316912619408
-0.005022115384615384,-0.06182397603996544,1.898611068579221
-0.005020865384615384,-0.05751129277360419,1.901919916054106
-0.005019615384615385,-0.05552082357374646,1.903243455044059
-0.005018365384615384,-0.05087639544074302,1.909530265246339
-0.005017115384615385,-0.04722720190766888,1.914162651711178
-0.005015865384615384,-0.04191928404137922,1.918133268681039
-0.005014615384615385,-0.03793834564166378,1.923427424640852
-0.005013365384615384,-0.03329391750865852,1.927067156863227
-0.005012115384615384,-0.03097170344215559,1.929383350095648
-0.005010865384615384,-0.02831774450901197,1.933353967065508
-0.005009615384615384,-0.02533204070922193,1.936001045045417
-0.005008365384615385,-0.02068761257622059,1.940964316257742
-0.005007115384615384,-0.01737016390978955,1.944273163732626
-0.005005865384615385,-0.01372097037671541,1.947912895954999
-0.005004615384615384,-0.01106701144357058,1.950890858682395
-0.005003365384615385,-0.008413052510426964,1.95386882140979
-0.005002115384615384,-0.004432114110708512,1.957508553632164
-0.005000865384615384,-0.0007829205776331656,1.96280270959198
-0.004999615384615384,0.001871038355510456,1.964457133329421
-0.004998365384615384,0.0058519767552277,1.96908951979426
-0.004997115384615385,0.009501170288301839,1.973060136764121
-0.004995865384615384,0.01414559842130529,1.977692523228959
-0.004994615384615385,0.0148090881545912,1.979346946966401
-0.004993365384615384,0.01812653682102253,1.982324909693798
-0.004992115384615385,0.02243922008738092,1.986626411411145
-0.004990865384615384,0.02509317902052771,1.988611719896078
-0.004989615384615384,0.02973760715353312,1.994567645350872
-0.004988365384615384,0.03405029041989151,1.99886914706822
-0.004987115384615384,0.03869471855289495,2.003832418280547
-0.004985865384615385,0.0430074018192553,2.009126574240362
-0.004984615384615384,0.04765182995225875,2.013428075957711
-0.004983365384615385,0.05130102348533124,2.016736923432595
-0.004982115384615384,0.05495021701840704,2.022031079392411
-0.004980865384615384,0.05826766568483928,2.025009042119808
-0.004979615384615384,0.06092162461798289,2.027325235352226
-0.004978365384615384,0.0652343078843446,2.031957621817067
-0.004977115384615385,0.06822001168413118,2.035928238786926
-0.004975865384615384,0.07153746035056222,2.039237086261811
-0.004974615384615385,0.07385967441706394,2.041884164241718
-0.004973365384615384,0.07750886795013807,2.044862126969114
-0.004972115384615385,0.08148980634985352,2.048832743938974
-0.004970865384615384,0.08414376528300015,2.05214159141386
-0.004969615384615384,0.0871294690827896,2.056443093131211
-0.004968365384615384,0.09044691774921912,2.059090171111117
-0.004967115384615384,0.09376436641565211,2.062729903333492
-0.004965865384615385,0.0980770496820105,2.06703140505084
-0.004964615384615384,0.1020579880817277,2.07133290676819
-0.004963365384615385,0.1040484572815864,2.074310869495586
-0.004962115384615384,0.1083611405479467,2.078943255960424
-0.004960865384615385,0.1126738238143051,2.082913872930284
-0.004959615384615384,0.1179817416805967,2.087877144142612
-0.004958365384615384,0.1212991903470297,2.091847761112476
-0.004957115384615384,0.1256118736133881,2.097141917072288
-0.004955865384615384,0.128597577413176,2.100781649294662
-0.004954615384615385,0.1325785158128933,2.103759612022058
-0.004953365384615384,0.1345689850127519,2.10739934424443
-0.004952115384615385,0.1388816682791103,2.11136996121429
-0.004950865384615384,0.1408721374789709,2.114017039194199
-0.004949615384615385,0.1455165656119722,2.118980310406524
-0.004948365384615384,0.1491657591450485,2.121958273133922
-0.004947115384615384,0.1514879732115516,2.125598005356296
-0.004945865384615384,0.1544736770113381,2.127252429093737
-0.004944615384615384,0.157127635944483,2.130561276568621
-0.004943365384615385,0.1597815948776278,2.133539239296018
-0.004942115384615384,0.1634307884107019,2.138833395255833
-0.004940865384615385,0.1674117268104174,2.142142242730716
-0.004939615384615384,0.1694021960102778,2.144458435963136
-0.004938365384615385,0.1727196446767073,2.14776728343802
-0.004937115384615384,0.1760370933431399,2.151407015660394
-0.004935865384615384,0.1796862868762158,2.156039402125234
-0.004934615384615385,0.1836672252759312,2.160010019095093
-0.004933365384615384,0.189306888008864,2.165304175054909
-0.004932115384615385,0.192624336675295,2.16927479202477
-0.004930865384615384,0.195610040475083,2.172914524247143
-0.004929615384615385,0.1999227237414413,2.177877795459467
-0.004928365384615384,0.2025766826745881,2.180855758186866
-0.004927115384615384,0.2075528556742357,2.185488144651705
-0.004925865384615384,0.2098750697407364,2.188796992126588
-0.004924615384615384,0.21120204920731,2.191113185359008
-0.004923365384615385,0.2138560081404537,2.19276760909645
-0.004922115384615384,0.2178369465401709,2.198061765056265
-0.004920865384615385,0.2201591606066726,2.201039727783661
-0.004919615384615384,0.2228131195398174,2.203025036268591
-0.004918365384615385,0.226130568206247,2.206664768490963
-0.004917115384615384,0.2291162720060364,2.209642731218361
-0.004915865384615384,0.2314384860725393,2.213282463440735
-0.004914615384615384,0.234092445005683,2.215929541420641
-0.004913365384615384,0.2380733834054011,2.220231043137991
-0.004912115384615385,0.2400638526052588,2.222216351622921
-0.004910865384615384,0.2433813012716899,2.226186968592783
-0.004909615384615385,0.2473622396714053,2.229164931320177
-0.004908365384615384,0.2496844537379088,2.233797317785017
-0.004907115384615385,0.2546606267375531,2.239422358492318
-0.004905865384615384,0.2579780754039864,2.242069436472228
-0.004904615384615384,0.2626225035369908,2.246701822937068
-0.004903365384615384,0.2646129727368485,2.250010670411951
-0.004902115384615384,0.2672669316699933,2.252657748391858
-0.004900865384615385,0.2699208906031382,2.255966595866743
-0.004899615384615384,0.272574849536283,2.25861367384665
-0.004898365384615385,0.2752288084694266,2.26258429081651
-0.004897115384615384,0.278878002002502,2.265562253543908
-0.004895865384615385,0.2805367263357167,2.267878446776326
-0.004894615384615384,0.2831906852688623,2.270525524756235
-0.004893365384615384,0.2845176647354362,2.273172602736143
-0.004892115384615385,0.2878351134018657,2.27581968071605
-0.004890865384615384,0.2911525620682968,2.279790297685911
-0.004889615384615385,0.2931430312681554,2.281113836675865
-0.004888365384615384,0.2944700107347278,2.28442268415075
-0.004887115384615385,0.2977874594011574,2.28806241637312
-0.004885865384615384,0.3017683978008761,2.291702148595495
-0.004884615384615384,0.3060810810672384,2.295672765565359
-0.004883365384615384,0.3103937643335968,2.300636036777683
-0.004882115384615384,0.3137112130000291,2.304606653747546
-0.004880865384615385,0.3163651719331727,2.307915501222429
-0.004879615384615384,0.317360406533102,2.308908155464894
-0.004878365384615385,0.3196826205996037,2.312547887687267
-0.004877115384615384,0.3226683243993916,2.314533196172198
-0.004875865384615385,0.3236635589993205,2.315856735162151
-0.004874615384615384,0.3253222833325365,2.320158236879502
-0.004873365384615384,0.3283079871323255,2.321481775869457
-0.004872115384615384,0.3306302011988261,2.32479062334434
-0.004870865384615384,0.3319571806653999,2.325452392839318
-0.004869615384615385,0.3349428844651865,2.328761240314201
-0.004868365384615384,0.3362698639317589,2.333724511526528
-0.004867115384615385,0.3402508023314743,2.335048050516481
-0.004865865384615384,0.3415777817980485,2.335709820011459
-0.004864615384615385,0.3432365061312633,2.338687782738853
-0.004863365384615384,0.3445634855978365,2.341003975971274
-0.004862115384615384,0.3468856996643397,2.343981938698672
-0.004860865384615384,0.3502031483307693,2.347952555668531
-0.004859615384615384,0.3545158315971296,2.350930518395927
-0.004858365384615385,0.3571697905302744,2.3545702506183
-0.004857115384615384,0.3608189840633486,2.358540867588161
-0.004855865384615385,0.3631411981298492,2.362180599810533
-0.004854615384615384,0.3651316673297089,2.363835023547977
-0.004853365384615385,0.3661269019296378,2.366482101527883
-0.004852115384615384,0.3691126057294262,2.368136525265326
-0.004850865384615384,0.3704395851959995,2.370121833750259
-0.004849615384615385,0.3724300543958572,2.37376156597263
-0.004848365384615384,0.3744205235957158,2.374423335467607
-0.004847115384615385,0.3764109927955744,2.378393952437468
-0.004845865384615384,0.3793966965953623,2.380710145669887
-0.004844615384615385,0.3793966965953623,2.381041030417376
-0.004843365384615384,0.3803919311952917,2.384018993144772
-0.004842115384615384,0.3820506555285078,2.385011647387238
-0.004840865384615384,0.3833776349950796,2.385673416882214
-0.004839615384615384,0.3856998490615833,2.389313149104589
-0.004838365384615385,0.3900125323279417,2.393283766074448
-0.004837115384615384,0.3923347463944434,2.39725438304431
-0.004835865384615385,0.394325215594302,2.398908806781752
-0.004834615384615384,0.3969791745274469,2.401886769509148
-0.004833365384615385,0.3996331334605905,2.405195616984031
-0.004832115384615384,0.3999648783272348,2.407180925468963
-0.004830865384615384,0.4022870923937373,2.408504464458918
-0.004829615384615384,0.403945816726952,2.411482427186313
-0.004828365384615384,0.4052727961935246,2.412475081428779
-0.004827115384615385,0.4056045410601675,2.413467735671244
-0.004825865384615384,0.4082584999933124,2.414791274661197
-0.004824615384615385,0.4085902448599553,2.416445698398639
-0.004823365384615384,0.4095854794598848,2.41843100688357
-0.004822115384615385,0.4119076935263855,2.421078084863476
-0.004820865384615384,0.4115759486597434,2.421408969610966
-0.004819615384615384,0.4132346729929595,2.423394278095897
-0.004818365384615384,0.4145616524595314,2.424717817085851
-0.004817115384615384,0.4175473562593193,2.429350203550689
-0.004815865384615385,0.4208648049257503,2.43133551203562
-0.004814615384615384,0.4225235292589658,2.434644359510504
-0.004813365384615385,0.4258409779253954,2.43729143749041
-0.004812115384615384,0.4265044676586831,2.439276745975342
-0.004810865384615385,0.4288266817251837,2.441923823955249
-0.004809615384615384,0.4298219163251141,2.443247362945204
-0.004808365384615384,0.4308171509250436,2.44424001718767
-0.004807115384615385,0.4311488957916865,2.444901786682646
-0.004805865384615384,0.4318123855249728,2.445894440925112
-0.004804615384615385,0.4321441303916158,2.446556210420088
-0.004803365384615384,0.4344663444581175,2.448541518905019
-0.004802115384615385,0.4344663444581175,2.45019594264246
-0.004800865384615384,0.4354615790580469,2.451188596884927
-0.004799615384615384,0.4347980893247611,2.451188596884927
-0.004798365384615384,0.4357933239246899,2.45251213587488
-0.004797115384615384,0.4377837931245493,2.454166559612323
-0.004795865384615385,0.4394425174577641,2.455490098602276
-0.004794615384615384,0.439110772591121,2.45681363759223
-0.004793365384615385,0.4401060071910503,2.457475407087207
-0.004792115384615384,0.4411012417909796,2.459791600319626
-0.004790865384615385,0.4444186904574092,2.463100447794509
-0.004789615384615384,0.44541392505734,2.465085756279441
-0.004788365384615384,0.4477361391238419,2.466740180016885
-0.004787115384615384,0.4480678839904848,2.469387257996791
-0.004785865384615384,0.4500583531903432,2.468725488501815
-0.004784615384615385,0.4493948634570572,2.470049027491768
-0.004783365384615384,0.4517170775235589,2.472696105471675
-0.004782115384615385,0.451053587790273,2.472696105471675
-0.004780865384615384,0.4500583531903434,2.471372566481722
-0.004779615384615385,0.4493948634570575,2.472034335976698
-0.004778365384615384,0.4517170775235589,2.473688759714141
-0.004777115384615384,0.4510535877902732,2.472365220724189
-0.004775865384615384,0.4520488223902021,2.475343183451583
-0.004774615384615384,0.4513853326569158,2.47600495294656
-0.004773365384615385,0.4523805672568452,2.476666722441537
-0.004772115384615384,0.4523805672568452,2.477328491936514
-0.004770865384615385,0.4530440569901311,2.47799026143149
-0.004769615384615384,0.4540392915900607,2.478321146178979
-0.004768365384615385,0.4563615056565614,2.48196087840135
-0.004767115384615384,0.4570249953898486,2.483946186886283
-0.004765865384615384,0.4583519748564218,2.485931495371214
-0.004764615384615385,0.4600106991896366,2.48659326486619
-0.004763365384615384,0.4596789543229934,2.485931495371213
-0.004762115384615385,0.4596789543229934,2.486262380118702
-0.004760865384615384,0.4586837197230641,2.486262380118702
-0.004759615384615385,0.4576884851231353,2.485269725876237
-0.004758365384615384,0.458351974856421,2.486924149613679
-0.004757115384615384,0.4580202299897787,2.486593264866191
-0.004755865384615384,0.4596789543229934,2.488247688603633
-0.004754615384615384,0.4586837197230638,2.487255034361167
-0.004753365384615385,0.4580202299897779,2.486924149613679
-0.004752115384615384,0.4580202299897779,2.487585919108656
-0.004750865384615385,0.4566932505232055,2.487255034361167
-0.004749615384615384,0.4566932505232055,2.487255034361167
-0.004748365384615385,0.4563615056565626,2.487255034361167
-0.004747115384615384,0.4566932505232055,2.487255034361167
-0.004745865384615384,0.4570249953898486,2.488247688603633
-0.004744615384615384,0.4570249953898486,2.488909458098609
-0.004743365384615384,0.4570249953898492,2.489240342846099
-0.004742115384615385,0.458351974856421,2.49089476658354
-0.004740865384615384,0.4596789543229934,2.492880075068471
-0.004739615384615385,0.4603424440562794,2.493541844563447
-0.004738365384615384,0.4600106991896366,2.493210959815959
-0.004737115384615385,0.4593472094563506,2.493872729310936
-0.004735865384615384,0.458351974856421,2.492549190320982
-0.004734615384615384,0.4576884851231348,2.492549190320982
-0.004733365384615384,0.4576884851231348,2.491556536078517
-0.004732115384615384,0.4560297607899193,2.49089476658354
-0.004730865384615385,0.4556980159232762,2.490232997088563
-0.004729615384615384,0.4540392915900607,2.490232997088563
-0.004728365384615385,0.4537075467234177,2.489571227593587
-0.004727115384615384,0.4537075467234176,2.490563881836052
-0.004725865384615385,0.4510535877902739,2.487585919108657
-0.004724615384615384,0.4517170775235589,2.487255034361167
-0.004723365384615384,0.4500583531903432,2.487585919108655
-0.004722115384615384,0.4493948634570572,2.486262380118702
-0.004720865384615384,0.448731373723771,2.486924149613679
-0.004719615384615385,0.4497266083237003,2.487255034361167
-0.004718365384615384,0.4490631185904141,2.487916803856144
-0.004717115384615385,0.450058353190343,2.48857857335112
-0.004715865384615384,0.4510535877902727,2.489571227593586
-0.004714615384615384,0.4507218429236286,2.489571227593586
-0.004713365384615384,0.4483996288571279,2.489240342846098
