data/scopedata/scopeNew.csv

#Digilent WaveForms Oscilloscope Acquisition
#Device Name: Discovery2
#Serial Number: SN:210321B81678
#Date Time: 2025-12-03 16:26:17.523
#Sample rate: 800000Hz
#Samples: 8192
#Trigger: Source: Channel 1 Type: Edge Condition: Rising Level: 0 V Hyst.: Auto HoldOff: 0 s
#Channel 1: Range: 200 mV/div Offset: 0 V Sample Mode: Average
#Channel 2: Range: 200 mV/div Offset: 0 V Sample Mode: Average
#Wavegen Channel 1: Running
#Mode: Simple
#Type: Sine
#Frequency: 1 kHz
#Period: 1 ms
#Amplitude: 500 mV
#Offset: 0 V
#Symmetry: 50 %
#Phase: 0 °
#Power Supplies: ON
#Positive Supply: ON
#Voltage: 5 V
#Negative Supply: ON
#Voltage: -2 V

#2,4kHz
#raw
#
Time (s),Channel 1 (V),Channel 2 (V)
-0.005119553571428572,-0.3129548400887949,-0.3270727281998975
-0.005118303571428571,-0.3116278606222225,-0.3250874197149669
-0.005117053571428571,-0.3066516876225747,-0.3211168027451042
-0.005115803571428571,-0.3039977286894311,-0.3184697247651979
-0.005114553571428571,-0.3039977286894311,-0.317807955270221
-0.005113303571428572,-0.300680280023,-0.3158226467852903
-0.005112053571428571,-0.2980263210898552,-0.3098667213304983
-0.005110803571428572,-0.2930501480902109,-0.3072196433505919
-0.005109553571428571,-0.2913914237569931,-0.30523433486566
-0.005108303571428571,-0.2897326994237764,-0.3029181416332394
-0.005107053571428571,-0.2870787404906328,-0.2996092941583565
-0.005105803571428571,-0.2830978020909145,-0.2963004466834712
-0.005104553571428572,-0.2807755880244138,-0.2946460229460298
-0.005103303571428571,-0.2774581393579828,-0.2893518669862146
-0.005102053571428572,-0.2731454560916224,-0.2860430195113302
-0.005100803571428571,-0.2724819663583362,-0.2847194805213764
-0.005099553571428572,-0.2708232420251215,-0.2824032872889582
-0.005098303571428571,-0.2675057933586897,-0.2794253245615612
-0.005097053571428571,-0.2638565998256139,-0.2774400160766284
-0.005095803571428571,-0.2602074062925414,-0.2728076296117923
-0.005094553571428571,-0.2568899576261091,-0.2691678973894179
-0.005093303571428572,-0.2539042538263224,-0.2658590499145349
-0.005092053571428571,-0.25257727435975,-0.2635428566821157
-0.005090803571428572,-0.2479328462267487,-0.260564893954721
-0.005089553571428571,-0.2452788872936017,-0.2582487007223006
-0.005088303571428572,-0.2403027142939575,-0.2532854295099762
-0.005087053571428571,-0.2389757348273828,-0.249645697287601
-0.005085803571428571,-0.2366535207608785,-0.2486530430451336
-0.005084553571428571,-0.2310138580279483,-0.2440206565802974
-0.005083303571428571,-0.230018623428019,-0.2413735786003898
-0.005082053571428572,-0.2276964093615172,-0.2393882701154592
-0.005080803571428571,-0.2233837260951569,-0.234094114155644
-0.005079553571428572,-0.2203980222953703,-0.2311161514282493
-0.005078303571428571,-0.217412318495581,-0.2274764192058751
-0.005077053571428572,-0.2147583595624374,-0.2254911107209453
-0.005075803571428571,-0.210777421162719,-0.2221822632460599
-0.005074553571428571,-0.2061329930297149,-0.2165572225387556
-0.005073303571428571,-0.2048060135631431,-0.2149027988013141
-0.005072053571428571,-0.2018203097633552,-0.2129174903163834
-0.005070803571428572,-0.1975076264969948,-0.2086159885990336
-0.005069553571428571,-0.1955171572971362,-0.2056380258716376
-0.005068303571428572,-0.1912044740307778,-0.2010056394068014
-0.005067053571428571,-0.188550515097631,-0.1973659071844264
-0.005065803571428571,-0.184901321564556,-0.1950497139520059
-0.005064553571428571,-0.1829108523646983,-0.1920717512246113
-0.005063303571428571,-0.1785981690983367,-0.1887629037497252
-0.005062053571428572,-0.1759442101651931,-0.1851231715273539
-0.005060803571428571,-0.1716315268988327,-0.1798290155675387
-0.005059553571428572,-0.169309312832331,-0.178505476577585
-0.005058303571428571,-0.1656601192992569,-0.174865744355212
-0.005057053571428572,-0.1606839462996126,-0.1708951273853525
-0.005055803571428571,-0.1586934770997517,-0.1682480494054431
-0.005054553571428571,-0.1560395181666052,-0.1649392019305561
-0.005053303571428571,-0.1523903246335327,-0.1593141612232551
-0.005052053571428571,-0.1474141516338847,-0.1553435442533929
-0.005050803571428572,-0.1440967029674551,-0.1536891205159515
-0.005049553571428571,-0.1414427440343103,-0.1497185035460901
-0.005048303571428572,-0.1371300607679519,-0.1464096560712072
-0.005047053571428571,-0.1354713364347344,-0.1440934628387865
-0.005045803571428572,-0.1298316737018042,-0.1378066526365089
-0.005044553571428571,-0.1258507353020844,-0.1325124966766909
-0.005043303571428571,-0.1238602661022244,-0.1311889576867356
-0.005042053571428571,-0.1208745623024379,-0.1278801102118526
-0.005040803571428571,-0.1172253687693637,-0.125233032231945
-0.005039553571428572,-0.1135761752362896,-0.1209315305145952
-0.005038303571428571,-0.1109222163031448,-0.1189462220296646
-0.005037053571428572,-0.1069412779034293,-0.1143138355648284
-0.005035803571428571,-0.1029603395037103,-0.1093505643524996
-0.005034553571428572,-0.0986476562373519,-0.1060417168776166
-0.005033303571428571,-0.09599369730420511,-0.1024019846552422
-0.005032053571428571,-0.09400322810434392,-0.09909313718035549
-0.005030803571428571,-0.08836356537141372,-0.09412986596803105
-0.005029553571428571,-0.08637309617155511,-0.09115190324063505
-0.005028303571428572,-0.08040168857197924,-0.08718128627077368
-0.005027053571428571,-0.07874296423876373,-0.08420332354337765
-0.005025803571428572,-0.0760890053056201,-0.08188713031095959
-0.005024553571428571,-0.07011759770604303,-0.07427678111872427
-0.005023303571428571,-0.06680014903961064,-0.07295324212876882
-0.005022053571428571,-0.06381444523982406,-0.06931350990639756
-0.005020803571428571,-0.06016525170674841,-0.06567377768402283
-0.005019553571428572,-0.05684780304031888,-0.06170316071416328
-0.005018303571428571,-0.05286686464060164,-0.05707077424932503
-0.005017053571428572,-0.04888592624088439,-0.05343104202695212
-0.005015803571428571,-0.04490498784116716,-0.0504530792995561
-0.005014553571428572,-0.04291451864130943,-0.04648246232969654
-0.005013303571428571,-0.03793834564166197,-0.04251184535983338
-0.005012053571428571,-0.03462089697523048,-0.03787945889499438
-0.005010803571428571,-0.03362566237530162,-0.03622503515755289
-0.005009553571428571,-0.02831774450901016,-0.03159264869271268
-0.005008303571428572,-0.02433680610929473,-0.02729114697536483
-0.005007053571428571,-0.02002412284293438,-0.02232787576303813
-0.005005803571428572,-0.01770190877643266,-0.01934991303564211
-0.005004553571428571,-0.01471620497664472,-0.01736460455071143
-0.005003303571428572,-0.008744797377071574,-0.01207044859089869
-0.005002053571428571,-0.005759093577280927,-0.008099831621034925
-0.005000803571428571,-0.002773389777491636,-0.004790984146148652
-0.004999553571428571,0.0002123140222949384,-0.0008203671762890978
-0.004998303571428571,0.004856742155298389,0.002819365046083815
-0.004997053571428572,0.008174190821729425,0.006459097268456729
-0.004995803571428571,0.01149163948816046,0.01009882949082964
-0.004994553571428572,0.0154725778878759,0.01440033120817749
-0.004993303571428571,0.01879002655430874,0.01704740918808702
-0.004992053571428572,0.02376619955395303,0.02333421939036465
-0.004990803571428571,0.02675190335374323,0.02598129737027508
-0.004989553571428571,0.02973760715353282,0.02862837535018506
-0.004988303571428571,0.03338680068660529,0.0339225313099978
-0.004987053571428571,0.03736773908632254,0.03690049403739382
-0.004985803571428572,0.04234391208596909,0.04153288050223208
-0.004984553571428571,0.04566136075240013,0.04616526696707033
-0.004983303571428572,0.04798357481890081,0.04781969070451181
-0.004982053571428571,0.05063753375204669,0.05145942292688548
-0.004980803571428571,0.05528196188505164,0.05609180939172508
-0.004979553571428571,0.05859941055148117,0.05906977211911975
-0.004978303571428571,0.06224860408455712,0.06337127383647137
-0.004977053571428572,0.06622954248427255,0.06734189080633091
-0.004975803571428571,0.06888350141741738,0.07131250777619227
-0.004974553571428572,0.07385967441706394,0.07528312474605364
-0.004973303571428571,0.07750886795013807,0.07958462646340345
-0.004972053571428572,0.07983108201663874,0.08123905020084493
-0.004970803571428571,0.08447551014964325,0.08719497565563772
-0.004969553571428571,0.08712946908278944,0.08984205363554665
-0.004968303571428571,0.09011517288257602,0.09282001636294132
-0.004967053571428571,0.0927691318157231,0.09612886383782832
-0.004965803571428572,0.09774530481536739,0.1017539045451294
-0.004964553571428571,0.102721477815014,0.1060554062624792
-0.004963303571428572,0.1053754367481588,0.1090333689898752
-0.004962053571428571,0.1083611405479467,0.1120113317172712
-0.004960803571428572,0.1110150994810903,0.1146584096971776
-0.004959553571428571,0.1166547622140243,0.1212761046469477
-0.004958303571428571,0.1186452314138849,0.1222687588894155
-0.004957053571428571,0.1229579146802433,0.1275629148492282
-0.004955803571428571,0.1262753633466743,0.1312026470716011
-0.004954553571428572,0.1279340876798898,0.1328570708090434
-0.004953303571428571,0.1345689850127519,0.1401365352537892
-0.004952053571428572,0.1349007298793949,0.1417909589912306
-0.004950803571428571,0.138218178545826,0.1431144979811852
-0.004949553571428572,0.1428626066788274,0.1490704234359745
-0.004948303571428571,0.1475070348118329,0.1540336946483039
-0.004947053571428571,0.1485022694117644,0.1540336946483067
-0.004945803571428571,0.1531466975447657,0.159989620103096
-0.004944553571428571,0.157127635944483,0.1642911218204458
-0.004943303571428572,0.1607768294775571,0.1675999692953302
-0.004942053571428571,0.1647577678772743,0.1715705862651916
-0.004940803571428572,0.1684069614103468,0.1748794337400746
-0.004939553571428571,0.1687387062769916,0.1762029727300299
-0.004938303571428572,0.1740466241432788,0.1811662439423543
-0.004937053571428571,0.1770323279430692,0.1854677456597064
-0.004935803571428571,0.1800180317428588,0.1887765931345922
-0.004934553571428572,0.1836672252759312,0.1917545558619869
-0.004933303571428571,0.1869846739423623,0.1950634033368713
-0.004932053571428572,0.1906338674754364,0.1996957898017096
-0.004930803571428571,0.1939513161418674,0.203004637276594
-0.004929553571428572,0.196937019941654,0.2059826000039887
-0.004928303571428571,0.2012497032080157,0.2106149864688283
-0.004927053571428571,0.203903662141162,0.2132620644487375
-0.004925803571428571,0.2072211108075916,0.2169017966711088
-0.004924553571428571,0.2105385594740234,0.2202106441459943
-0.004923303571428572,0.2121972838072382,0.2225268373784124
-0.004922053571428571,0.2165099670735985,0.22517391535832
-0.004920803571428572,0.2211543952066019,0.2317916103080889
-0.004919553571428571,0.2241400990063899,0.234107803540508
-0.004918303571428572,0.2244718438730328,0.2354313425304612
-0.004917053571428571,0.2297797617393226,0.2410563832377654
-0.004915803571428571,0.233097210405755,0.2446961154601393
-0.004914553571428571,0.2360829142055416,0.246681423945069
-0.004913303571428571,0.238405128272045,0.2509829256624208
-0.004912053571428572,0.2420543218051175,0.2552844273797686
-0.004910803571428571,0.2453717704715485,0.2566079663697224
-0.004909553571428572,0.2496844537379069,0.2609094680870703
-0.004908303571428571,0.2506796883378382,0.2638874308144682
-0.004907053571428572,0.2536653921376247,0.2662036240468863
-0.004905803571428571,0.2569828408040571,0.2701742410167487
-0.004904553571428571,0.2603002894704898,0.2734830884916348
-0.004903303571428571,0.2639494830035623,0.2771228207140061
-0.004902053571428571,0.2659399522034209,0.2787772444514483
-0.004900803571428572,0.2692574008698519,0.2820860919263328
-0.004899553571428571,0.2729065944029261,0.2880420173811248
-0.004898303571428572,0.2748970636027838,0.2896964411185663
-0.004897053571428571,0.275892298202714,0.2906890953610324
-0.004895803571428572,0.2808684712023583,0.2966450208158217
-0.004894553571428571,0.2841859198687916,0.2986303293007551
-0.004893303571428571,0.2858446442020089,0.3006156377856876
-0.004892053571428572,0.2898255826017244,0.3045862547555472
-0.004890803571428571,0.2934747761347985,0.308887756472897
-0.004889553571428572,0.2934747761347985,0.3092186412203854
-0.004888303571428571,0.2977874594011589,0.3138510276852237
-0.004887053571428572,0.2997779286010166,0.3161672209176418
-0.004885803571428571,0.3021001426675192,0.3191451836450388
-0.004884553571428571,0.3077398054004528,0.3234466853623901
-0.004883303571428571,0.3093985297336675,0.3267555328372731
-0.004882053571428571,0.3113889989335269,0.3277481870797392
-0.004880803571428572,0.3130477232667416,0.3294026108171807
-0.004879553571428571,0.3150381924666003,0.3323805735445767
-0.004878303571428572,0.3196826205996037,0.3376747295043918
-0.004877053571428571,0.323663558999321,0.3406526922317878
-0.004875803571428572,0.323663558999321,0.3416453464742528
-0.004874553571428571,0.3276444973990382,0.3456159634441145
-0.004873303571428571,0.3316254357987557,0.3499174651614653
-0.004872053571428571,0.3322889255320416,0.3519027736463951
-0.004870803571428571,0.335606374198474,0.3548807363737924
-0.004869553571428572,0.3385920779982606,0.3578586991011871
-0.004868303571428571,0.3385920779982606,0.3575278143536986
-0.004867053571428572,0.342904761264619,0.3614984313235582
-0.004865803571428571,0.3442317407311934,0.364476394050956
-0.004864553571428572,0.3448952304644793,0.3648072787984443
-0.004863303571428571,0.3498714034641262,0.3697705500107711
-0.004862053571428571,0.3511983829307008,0.3710940890007269
-0.004860803571428571,0.3561745559303451,0.3753955907180748
-0.004859553571428571,0.3561745559303451,0.3760573602130516
-0.004858303571428572,0.3584967699968468,0.3796970924354245
-0.004857053571428571,0.3618142186632778,0.3833368246577974
-0.004855803571428572,0.3647999224630645,0.3859839026377038
-0.004854553571428571,0.3667903916629244,0.3876383263751473
-0.004853303571428572,0.3674538813962103,0.3876383263751473
-0.004852053571428571,0.3694443505960692,0.3912780585975202
-0.004850803571428571,0.3720983095292147,0.3942560213249173
-0.004849553571428571,0.3734252889957865,0.3965722145573353
-0.004848303571428571,0.3764109927955744,0.398557523042266
-0.004847053571428572,0.3787332068620762,0.401535485769662
-0.004845803571428571,0.381387165795221,0.4038516790020812
-0.004844553571428572,0.3837093798617217,0.4071605264769642
-0.004843303571428571,0.3840411247283658,0.4068296417294772
-0.004842053571428571,0.3873585733947977,0.4108002586993396
-0.004840803571428571,0.3893490425946555,0.4131164519317577
-0.004839553571428571,0.3896807874612994,0.4144399909217119
-0.004838303571428572,0.3913395117945141,0.4154326451641768
-0.004837053571428571,0.394325215594302,0.4184106078915728
-0.004835803571428572,0.3959839399275175,0.4197341468815266
-0.004834553571428571,0.3986378988606624,0.4233738791038995
-0.004833303571428572,0.4006283680605201,0.4256900723363176
-0.004832053571428571,0.4012918577938072,0.426682726578784
-0.004830803571428571,0.4052727961935246,0.4299915740536692
-0.004829553571428571,0.4056045410601675,0.4316459977911107
-0.004828303571428571,0.4075950102600261,0.4326386520335763
-0.004827053571428572,0.4075950102600261,0.4333004215285529
-0.004825803571428571,0.4099172243265279,0.4352857300134836
-0.004824553571428572,0.4115759486597426,0.4389254622358548
-0.004823303571428571,0.4142299075928882,0.4405798859732987
-0.004822053571428572,0.4152251421928171,0.4412416554682754
-0.004820803571428571,0.4172156113926762,0.4428960792057179
-0.004819553571428571,0.4192060805925348,0.4465358114280905
-0.004818303571428571,0.4192060805925348,0.4458740419331139
-0.004817053571428571,0.4215282946590365,0.4491828894079984
-0.004815803571428572,0.4238505087255383,0.4511681978929291
-0.004814553571428571,0.4235187638588951,0.4501755436504637
-0.004813303571428572,0.4255092330587529,0.4534843911253467
-0.004812053571428571,0.4291584265918279,0.4564623538527442
-0.004810803571428572,0.4278314471252561,0.4558005843577675
-0.004809553571428571,0.4314806406583296,0.4591094318326517
-0.004808303571428571,0.4294901714584719,0.4591094318326523
-0.004807053571428571,0.4314806406583296,0.4604329708226055
-0.004805803571428571,0.4341345995914744,0.4640727030449784
-0.004804553571428572,0.4357933239246899,0.4647344725399554
-0.004803303571428571,0.4367885585246193,0.4657271267824207
-0.004802053571428572,0.4371203033912622,0.4667197810248856
-0.004800803571428571,0.4387790277244779,0.4683742047623283
-0.004799553571428571,0.4401060071910514,0.4693668590047947
-0.004798303571428571,0.442428221257552,0.4716830522372127
-0.004797053571428571,0.4411012417909804,0.4710212827422366
-0.004795803571428572,0.4427599661241952,0.472675706479678
-0.004794553571428571,0.4440869455907676,0.4746610149646088
-0.004793303571428572,0.4450821801906969,0.4743301302171203
-0.004792053571428571,0.4464091596572693,0.4769772081970279
-0.004790803571428572,0.4470726493905552,0.4779698624394928
-0.004789553571428571,0.4477361391238417,0.479293401429447
-0.004788303571428571,0.4497266083237009,0.4796242861769365
-0.004787053571428571,0.4510535877902727,0.4819404794093546
-0.004785803571428571,0.4510535877902727,0.481609594661867
-0.004784553571428572,0.4510535877902727,0.4835949031467968
-0.004783303571428571,0.4517170775235589,0.4829331336518199
-0.004782053571428572,0.4527123121234878,0.4829331336518199
-0.004780803571428571,0.4530440569901313,0.4855802116317275
-0.004779553571428572,0.4537075467234173,0.4862419811267041
-0.004778303571428571,0.4537075467234176,0.4862419811267044
-0.004777053571428571,0.4550345261899904,0.4885581743591234
-0.004775803571428571,0.4560297607899193,0.4882272896116351
-0.004774553571428571,0.458351974856421,0.4905434828440542
-0.004773303571428572,0.4570249953898486,0.4908743675915426
-0.004772053571428571,0.4573567402564917,0.4905434828440542
-0.004770803571428572,0.4590154645897064,0.492528791328984
-0.004769553571428571,0.458351974856421,0.4928596760764733
-0.004768303571428572,0.458351974856421,0.4921979065814967
-0.004767053571428571,0.4596789543229934,0.4935214455714502
-0.004765803571428571,0.4606741889229221,0.4951758693088916
-0.004764553571428571,0.4593472094563503,0.4931905608239618
-0.004763303571428571,0.4596789543229934,0.4938523303189387
-0.004762053571428572,0.4620011683894952,0.4964994082988463
-0.004760803571428571,0.4613376786562089,0.494844984561404
-0.004759553571428572,0.4626646581227807,0.4978229472887987
-0.004758303571428571,0.4639916375893538,0.4981538320362885
-0.004757053571428571,0.4610059337895658,0.4958376388038692
-0.004755803571428571,0.4610059337895658,0.4955067540563809
-0.004754553571428571,0.4623329132561388,0.4971611777938237
-0.004753303571428572,0.4636598927227107,0.4984847167837769
-0.004752053571428571,0.4633281478560676,0.4984847167837769
-0.004750803571428572,0.4623329132561382,0.4981538320362885
-0.004749553571428571,0.4626646581227813,0.4974920625413116
-0.004748303571428572,0.4616694235228525,0.4974920625413116
-0.004747053571428571,0.4613376786562089,0.4978229472888
-0.004745803571428571,0.4626646581227815,0.4994773710262421
-0.004744553571428571,0.4629964029894245,0.4991464862787538
-0.004743303571428571,0.4623329132561382,0.4978229472888004
-0.004742053571428572,0.4623329132561382,0.4988156015312654
-0.004740803571428571,0.4623329132561382,0.4984847167837769
-0.004739553571428572,0.4606741889229235,0.4968302930463355
-0.004738303571428571,0.4633281478560676,0.5004700252687075
-0.004737053571428572,0.4606741889229239,0.4971611777938246
-0.004735803571428571,0.4603424440562797,0.4978229472888
-0.004734553571428571,0.4606741889229229,0.4971611777938233
-0.004733303571428571,0.4610059337895658,0.4974920625413116
-0.004732053571428571,0.4606741889229227,0.4978229472888
-0.004730803571428572,0.458351974856421,0.4958376388038693
-0.004729553571428571,0.458351974856421,0.4964994082988463
-0.004728303571428572,0.4586837197230639,0.4961685235513579
-0.004727053571428571,0.4573567402564917,0.4964994082988463
-0.004725803571428572,0.4570249953898488,0.4935214455714516
-0.004724553571428571,0.4556980159232762,0.4928596760764733
