data/oldScopeData/1V scope.csv

#Digilent WaveForms Oscilloscope Acquisition
#Device Name: Discovery2
#Serial Number: SN:210321B81678
#Date Time: 2025-08-30 13:10:10.562
#Sample rate: 800000Hz
#Samples: 8192
#Trigger: Source: Channel 1 Type: Edge Condition: Rising Level: 0 V Hyst.: Auto HoldOff: 0 s
#Channel 1: Range: 200 mV/div Offset: 0 V Sample Mode: Average
#Channel 2: Range: 200 mV/div Offset: -2 V Sample Mode: Average
#Wavegen Channel 1: Running
#Mode: Simple
#Type: Sine
#Frequency: 1 kHz
#Period: 1 ms
#Amplitude: 1 V
#Offset: 0 V
#Symmetry: 50 %
#Phase: 0 °
#Power Supplies: ON
#Positive Supply: ON
#Voltage: 5 V
#Negative Supply: ON
#Voltage: -2 V

#2,4kHz
#raw
#
Time (s),Channel 1 (V),Channel 2 (V)
-0.005119500000000001,-0.6201505866003089,1.287136055220571
-0.00511825,-0.614510923867376,1.291437556937921
-0.005117,-0.6101982406010128,1.296731712897739
-0.005115750000000001,-0.6038950881347968,1.302687638352528
-0.0051145,-0.5989189151351502,1.307650909564855
-0.005113250000000001,-0.5942744870021467,1.311621526534716
-0.005112,-0.5892983140025002,1.317577451989508
-0.005110750000000001,-0.5829951615362841,1.323202492696809
-0.0051095,-0.5776872436699916,1.328165763909138
-0.00510825,-0.5717158360704137,1.334452574111421
-0.005107,-0.5674031528040553,1.339415845323746
-0.00510575,-0.5607682554711911,1.347026194515981
-0.005104500000000001,-0.5561238273381898,1.350335041990864
-0.00510325,-0.5521428889384725,1.354636543708214
-0.005102000000000001,-0.5448445018723242,1.36191600815296
-0.00510075,-0.5392048391393915,1.366879279365287
-0.005099500000000001,-0.5332334315398183,1.371842550577611
-0.00509825,-0.5282572585401691,1.379122015022359
-0.005097,-0.5229493406738766,1.384085286234688
-0.00509575,-0.5166461882076605,1.388717672699524
-0.0050945,-0.510011290874796,1.396328021891761
-0.005093250000000001,-0.5047033730085088,1.401622177851574
-0.005092,-0.4977367308090036,1.407908988053854
-0.005090750000000001,-0.4904383437428586,1.415850221993573
-0.0050895,-0.483139956676707,1.423460571185811
-0.005088250000000001,-0.4775002939437768,1.428754727145624
-0.005087,-0.4692066722776967,1.436695961085349
-0.00508575,-0.4645622441446914,1.442651886540143
-0.0050845,-0.460581305744976,1.446953388257491
-0.00508325,-0.4522876840788984,1.454232852702237
-0.005082000000000001,-0.4469797662126087,1.460188778157029
-0.00508075,-0.4413401034796759,1.465152049369356
-0.005079500000000001,-0.4347052061468169,1.471438859571633
-0.00507825,-0.4290655434138811,1.477725669773916
-0.005077000000000001,-0.422762390947665,1.484343364723682
-0.00507575,-0.4167909833480863,1.490961059673454
-0.0050745,-0.4104878308818644,1.497578754623226
-0.005073250000000001,-0.4038529335490053,1.503534680078015
-0.005072,-0.3985450156827156,1.509821490280296
-0.005070750000000001,-0.3905831388832811,1.516108300482576
-0.0050695,-0.3849434761503484,1.522725995432345
-0.005068250000000001,-0.3796355582840611,1.528351036139646
-0.005067,-0.3720054263512673,1.535299615836906
-0.00506575,-0.3673609982182608,1.541586426039189
-0.0050645,-0.3607261008854018,1.54721146674649
-0.00506325,-0.3537594586858934,1.555483585433704
-0.005062000000000001,-0.3467928164863914,1.561439510888493
-0.00506075,-0.3414848986201018,1.567064551595797
-0.005059500000000001,-0.3345182564205966,1.57500578553552
-0.00505825,-0.3278833590877345,1.581623480485289
-0.005057000000000001,-0.3222436963548043,1.586586751697613
-0.00505575,-0.3156087990219397,1.594527985637338
-0.0050545,-0.3073151773558596,1.601807450082087
-0.00505325,-0.3016755146229294,1.608094260284364
-0.005052,-0.2950406172900643,1.615042839981625
-0.005050750000000001,-0.2884057199572052,1.621660534931391
-0.0050495,-0.2817708226243431,1.628939999376136
-0.005048250000000001,-0.2728137112249834,1.637873887558321
-0.005047,-0.2638565998256155,1.646146006245536
-0.005045750000000001,-0.2572217024927564,1.653756355437767
-0.0050445,-0.2495915705599621,1.662028474124981
-0.00504325,-0.24229318349381,1.669969708064707
-0.005042,-0.2339995618277362,1.677580057256938
-0.00504075,-0.2286916439614466,1.682874213216753
-0.005039500000000001,-0.2223884914952276,1.689491908166522
-0.00503825,-0.2164170838956517,1.696109603116291
-0.005037000000000001,-0.2094504416961497,1.703058182813546
-0.00503575,-0.2028155443632845,1.710006762510806
-0.005034500000000001,-0.1955171572971395,1.717947996450525
-0.00503325,-0.1888822599642741,1.724565691400298
-0.005032,-0.1835743420979807,1.730852501602582
-0.00503075,-0.1752807204319069,1.739455505037278
-0.0050295,-0.1696410576989741,1.744749660997093
-0.005028250000000001,-0.1626744154994689,1.752360010189327
-0.005027,-0.1550442835666775,1.759970359381561
-0.005025750000000001,-0.1490728759671044,1.767249823826304
-0.0050245,-0.1421062337675965,1.773536634028588
-0.00502325,-0.134144356968159,1.781808752715802
-0.005022,-0.1275094596352999,1.788095562918079
-0.00502075,-0.1202110725691493,1.795375027362829
-0.005019500000000001,-0.114903154702862,1.802654491807571
-0.00501825,-0.1069412779034275,1.810926610494782
-0.005017000000000001,-0.1003063805705655,1.817213420697063
-0.00501575,-0.09367148323770338,1.824823769889297
-0.005014500000000001,-0.08670484103820138,1.831441464839063
-0.00501325,-0.07940645397204993,1.8390518140313
-0.005012,-0.07376679123911324,1.845669508981073
-0.00501075,-0.06514142470639647,1.853279858173303
-0.0050095,-0.05817478250688873,1.861551976860518
-0.005008250000000001,-0.05253511977395854,1.868169671810283
-0.005007,-0.04390975324123784,1.876441790497495
-0.005005750000000001,-0.03495264184187405,1.88603744817466
-0.0050045,-0.02765425477572576,1.892655143124429
-0.005003250000000001,-0.01836539850972309,1.903574339791542
-0.005002,-0.009408287110355067,1.913500882216201
-0.00500075,-0.003436879510776637,1.919125922923507
-0.0049995,0.00220278322215356,1.925412733125785
-0.00499825,0.009169425421658736,1.933353967065508
-0.004997000000000001,0.01679955735445012,1.939640777267788
-0.00499575,0.02476143415388461,1.948574665449976
-0.004994500000000001,0.03073284175345775,1.955854129894719
-0.00499325,0.03637250448639323,1.960155631612072
-0.004992000000000001,0.04333914668589523,1.969420404541744
-0.00499075,0.05030578888540359,1.976368984239006
-0.0049895,0.05760417595155533,1.984310218178732
-0.00498825,0.06523430788434324,1.991589682623474
-0.004987,0.07186920521720531,1.999200031815708
-0.004985750000000001,0.07784061281678117,2.0051559572705
-0.0049845,0.08447551014964325,2.013428075957711
-0.004983250000000001,0.09144215234914527,2.020707540402454
-0.004982,0.09940402914858291,2.02864877434218
-0.00498075,0.1050436918815198,2.034935584544464
-0.0049795,0.1140008032808795,2.042876818484183
-0.00497825,0.1199722108804582,2.050818052423909
-0.004977000000000001,0.1262753633466743,2.057766632121163
-0.00497575,0.1355642196126812,2.066700520303351
-0.004974500000000001,0.1455165656119743,2.076627062728005
-0.00497325,0.1518197180781933,2.084899181415216
-0.004972000000000001,0.160776829477553,2.092509530607447
-0.00497075,0.1680752165437054,2.100781649294662
-0.0049695,0.1737148792766411,2.107399344244433
-0.00496825,0.1803497766095002,2.114678808689176
-0.004967,0.1866529290757231,2.121958273133925
-0.004965750000000001,0.1952782956084398,2.129568622326156
-0.0049645,0.2005862134747295,2.136186317275925
-0.004963250000000001,0.2072211108075916,2.144127551215648
-0.004962,0.2138560081404537,2.149752591922951
-0.004960750000000001,0.2211543952065986,2.158686480105136
-0.0049595,0.2271258028061778,2.166627714044862
-0.00495825,0.2347559347389716,2.172583639499657
-0.004957,0.2400638526052588,2.178208680206958
-0.00495575,0.2466987499381209,2.186480798894169
-0.004954500000000001,0.253333647270983,2.193760263338915
-0.00495325,0.2612955240704175,2.202032382026126
-0.004952000000000001,0.2679304214032766,2.209973615965845
-0.00495075,0.2752288084694278,2.216922195663106
-0.004949500000000001,0.2798732366024292,2.221885466875431
-0.00494825,0.2861763890686502,2.228834046572691
-0.004947,0.2964604799345892,2.239091473744836
-0.00494575,0.3024318875341623,2.246701822937066
-0.0049445,0.3107255092002399,2.256297480614232
-0.004943250000000001,0.3180238962663882,2.263576945058977
-0.004942,0.3259857730658227,2.271849063746188
-0.004940750000000001,0.3326206703986818,2.278797643443442
-0.0049395,0.3382603331316175,2.285746223140703
-0.004938250000000001,0.3445634855978336,2.293025687585446
-0.004937,0.3508666380640554,2.29931249778773
-0.00493575,0.3578332802635636,2.306922846979966
-0.004934500000000001,0.3644681775964227,2.313209657182244
-0.00493325,0.3694443505960692,2.319827352132013
-0.004932000000000001,0.3774062273955037,2.328430355566713
-0.00493075,0.3823824003951503,2.334717165768993
-0.004929500000000001,0.3876903182614376,2.340011321728806
-0.00492825,0.3936617258610158,2.346959901426066
-0.004927,0.4022870923937386,2.354570250618302
-0.00492575,0.40693152052674,2.359864406578115
-0.0049245,0.4135664178596058,2.368467410012819
-0.004923250000000001,0.4218600395256796,2.377401298195003
-0.004922,0.4284949368585417,2.384018993144772
-0.004920750000000001,0.4361250687913331,2.39295288132696
-0.0049195,0.4447504353240538,2.401225000014171
-0.004918250000000001,0.4507218429236269,2.40916623395389
-0.004917,0.4553662710566331,2.41412950516622
-0.00491575,0.4620011683894979,2.421739854358457
-0.0049145,0.467972575989071,2.42703401031827
-0.00491325,0.4736122387220062,2.433320820520553
-0.004912000000000001,0.4789201565882935,2.439607630722831
-0.00491075,0.4852233090545124,2.446556210420088
-0.004909500000000001,0.4895359923208708,2.452512135874878
-0.00490825,0.4951756550538055,2.459129830824649
-0.004907000000000001,0.5018105523866646,2.46475487153195
-0.00490575,0.5064549805196711,2.471372566481722
-0.0049045,0.5130898778525361,2.477328491936517
-0.00490325,0.5197247751853952,2.484938841128748
-0.004902,0.5270231622515434,2.492549190320982
-0.004900750000000001,0.5326628249844763,2.501152193755682
-0.0048995,0.5409564466505539,2.508431658200428
-0.004898250000000001,0.546927854250127,2.514718468402706
-0.004897,0.55124053751649,2.520012624362523
-0.004895750000000001,0.5565484553827772,2.526961204059778
-0.0048945,0.56086113864914,2.531924475272108
-0.00489325,0.5671642911153616,2.538873054969367
-0.004892000000000001,0.5728039538482917,2.545159865171645
-0.00489075,0.5771166371146521,2.55045402113146
-0.004889500000000001,0.5820928101142987,2.554755522848811
-0.00488825,0.589391197180447,2.562034987293556
-0.004887000000000001,0.5937038804468053,2.568321797495834
-0.00488575,0.59934354317974,2.574608607698117
-0.0048845,0.6026609918461737,2.579240994162958
-0.00488325,0.608632399445747,2.585527804365236
-0.004882,0.6129450827121111,2.590821960325055
-0.004880750000000001,0.6212387043781848,2.598763194264774
-0.0048795,0.6288688363109762,2.606704428204496
-0.004878250000000001,0.6341767541772659,2.613653007901754
-0.004877,0.6384894374436263,2.619608933356546
-0.004875750000000001,0.6444608450431994,2.625895743558824
-0.0048745,0.6507639975094212,2.632844323256084
-0.00487325,0.6547449359091406,2.638138479215901
-0.004872,0.6597211089087849,2.643763519923203
-0.00487075,0.6643655370417901,2.648065021640555
-0.004869500000000001,0.6683464754415056,2.653359177600367
-0.00486825,0.672659158707866,2.658322448812694
-0.004867000000000001,0.6779670765741531,2.663616604772507
-0.00486575,0.6829432495738021,2.669241645479813
-0.004864500000000001,0.6862606982402316,2.673543147197161
-0.00486325,0.6905733815065935,2.679499072651955
-0.004862,0.6942225750396699,2.684462343864284
-0.00486075,0.6991987480393143,2.689425615076608
-0.0048595,0.7038431761723177,2.693727116793958
-0.004858250000000001,0.7091510940386073,2.700344811743727
-0.004857,0.7134637773049677,2.706300737198519
-0.004855750000000001,0.7184399503046121,2.711594893158332
-0.0048545,0.7254065925041194,2.718543472855592
-0.004853250000000001,0.7307145103704067,2.725161167805357
-0.004852,0.7360224282366987,2.730786208512664
-0.00485075,0.7383446423032023,2.736080364472481
-0.004849500000000001,0.7423255807029177,2.739720096694852
-0.00484825,0.7459747742359919,2.743690713664714
-0.004847000000000001,0.7506192023689953,2.74865398487704
-0.00484575,0.7522779267022108,2.751962832351925
-0.004844500000000001,0.757917589435141,2.756595218816761
-0.00484325,0.7609032932349316,2.760896720534113
-0.004842,0.7652159765012934,2.76619087649393
-0.00484075,0.7685334251677229,2.770823262958766
-0.0048395,0.7721826187007983,2.774793879928629
-0.004838250000000001,0.7748365776339419,2.778433612151
-0.004837,0.7774905365670867,2.782404229120861
-0.004835750000000001,0.7847889236332349,2.789683693565607
-0.0048345,0.7887698620329522,2.794316080030446
-0.004833250000000001,0.7934142901659536,2.79927935124277
-0.004832,0.7967317388323867,2.804573507202587
-0.00483075,0.8020396566986779,2.809536778414916
-0.0048295,0.8053571053651074,2.813507395384776
-0.00482825,0.8093380437648262,2.818470666597105
-0.004827000000000001,0.8126554924312557,2.82310305306194
-0.00482575,0.8143142167644712,2.82541924629436
-0.004824500000000001,0.8166364308309718,2.827735439526778
-0.00482325,0.8202856243640471,2.834022249729059
-0.004822000000000001,0.8222760935639047,2.836007558213989
-0.00482075,0.8255935422303368,2.838323751446409
-0.0048195,0.8275840114301969,2.842956137911249
-0.00481825,0.8309014600966264,2.845934100638643
-0.004817,0.8335554190297711,2.849573832861016
-0.004815750000000001,0.8352141433629867,2.852551795588412
-0.0048145,0.8385315920294177,2.856191527810785
-0.004813250000000001,0.8405220612292755,2.858838605790691
-0.004812,0.8441712547623506,2.863140107508042
-0.004810750000000001,0.84748870342878,2.867772493972879
-0.0048095,0.849147427761997,2.870419571952788
-0.00480825,0.8534601110283596,2.875713727912606
-0.004807000000000001,0.858436284028004,2.881007883872419
-0.00480575,0.8614219878277919,2.884316731347303
-0.004804500000000001,0.8644076916275798,2.888949117812142
-0.00480325,0.868388630027297,2.892257965287026
-0.004802000000000001,0.868388630027297,2.894243273771956
-0.00480075,0.8707108440937988,2.897221236499353
-0.0047995,0.8720378235603716,2.898544775489307
-0.00479825,0.8730330581603005,2.900860968721726
-0.004797,0.8766822516933747,2.904169816196611
-0.004795750000000001,0.8766822516933747,2.905824239934052
-0.0047945,0.8783409760265902,2.907809548418983
-0.004793250000000001,0.8803314452264488,2.911118395893867
-0.004792,0.8833171490262367,2.914427243368752
-0.004790750000000001,0.8829854041595937,2.915419897611217
-0.0047895,0.8849758733594523,2.917074321348659
-0.00478825,0.8869663425593124,2.921375823066011
-0.004787,0.8902837912257419,2.924353785793405
-0.00478575,0.8919425155589585,2.927331748520803
-0.004784500000000001,0.8942647296254591,2.929978826500709
-0.00478325,0.8985774128918195,2.934942097713035
-0.004782000000000001,0.8999043923583914,2.936265636702989
-0.00478075,0.8999043923583919,2.937920060440431
-0.004779500000000001,0.899240902625106,2.938581829935408
-0.00477825,0.9015631166916075,2.940567138420339
-0.004777,0.9018948615582513,2.943214216400247
-0.00477575,0.9035535858914661,2.944206870642712
-0.0047745,0.9032218410248229,2.945530409632666
-0.004773250000000001,0.9038853307581092,2.946192179127643
-0.004772,0.9048805653580385,2.946523063875131
-0.004770750000000001,0.9048805653580385,2.948839257107549
-0.0047695,0.9068710345578971,2.951817219834946
-0.004768250000000001,0.9085297588911119,2.9531407588249
-0.004767,0.9101884832243281,2.956118721552296
-0.00476575,0.9128424421574731,2.958765799532205
-0.004764500000000001,0.913174187024116,2.960751108017134
-0.00476325,0.913174187024116,2.961412877512111
-0.004762000000000001,0.9125106972908299,2.961081992764623
-0.00476075,0.9118472075575437,2.962405531754577
-0.004759500000000001,0.9125106972908296,2.962074647007088
-0.00475825,0.912842442157473,2.962736416502065
-0.004757,0.9128424421574729,2.963398185997043
-0.00475575,0.9125106972908299,2.965052609734484
-0.0047545,0.9135059318907587,2.965714379229461
-0.004753250000000001,0.9125106972908299,2.966045263976949
-0.004752,0.9138376767574022,2.96803057246188
-0.004750750000000001,0.9141694216240454,2.969354111451834
-0.0047495,0.9141694216240454,2.969354111451834
-0.004748250000000001,0.9154964010906173,2.971339419936764
-0.004747,0.9154964010906178,2.972001189431742
-0.00474575,0.9164916356905473,2.973986497916673
-0.0047445,0.9168233805571903,2.974979152159138
-0.00474325,0.9158281459572608,2.975971806401602
-0.004742000000000001,0.9154964010906178,2.974979152159138
-0.00474075,0.9148329113573316,2.975310036906626
-0.004739500000000001,0.9128424421574739,2.974317382664161
-0.00473825,0.912842442157473,2.974317382664161
-0.004737000000000001,0.9118472075575441,2.973655613169184
-0.00473575,0.9105202280909712,2.97233207417923
-0.0047345,0.9091932486243984,2.972993843674207
-0.00473325,0.9081980140244695,2.972662958926719
-0.004732,0.9072027794245402,2.971670304684253
-0.004730750000000001,0.9062075448246109,2.971670304684253
-0.0047295,0.9048805653580385,2.970677650441788
-0.004728250000000001,0.9052123102246815,2.971339419936764
-0.004727,0.9045488204913954,2.971008535189276
-0.004725750000000001,0.9042170756247524,2.971339419936765
-0.0047245,0.9038853307581092,2.97233207417923
-0.00472325,0.9032218410248228,2.972662958926719
-0.004722000000000001,0.9028900961581798,2.973655613169184
-0.00472075,0.9022266064248936,2.972993843674207
-0.004719500000000001,0.9015631166916075,2.972662958926719
-0.00471825,0.8979139231585332,2.969354111451834
-0.004717000000000001,0.8952599642253897,2.968361457209369
-0.00471575,0.8945964744921022,2.966376148724438
-0.0047145,0.8912790258256706,2.965052609734483
-0.00471325,0.8899520463590989,2.963067301249553
-0.004712,0.8879615771592394,2.961743762259599
-0.004710750000000001,0.8863028528260247,2.961081992764623
-0.0047095,0.8833171490262367,2.959758453774669
-0.004708250000000001,0.8813266798263781,2.957111375794761
-0.004707,0.8786727208932333,2.955456952057319
-0.004705750000000001,0.8766822516933755,2.953802528319878
-0.0047045,0.8750235273601592,2.952478989329923
-0.00470325,0.8756870170934448,2.953471643572389
-0.004702,0.874360037626873,2.953471643572389
-0.00470075,0.8720378235603704,2.952478989329923
-0.004699500000000001,0.8703790992271557,2.952148104582434
-0.00469825,0.8693838646272264,2.949501026602527
-0.004697000000000001,0.8683886300272975,2.948508372360062
-0.00469575,0.8637442018942936,2.945199524885177
-0.004694500000000001,0.86109024296115,2.943545101147736
-0.00469325,0.8581045391613609,2.941228907915316
-0.004692,0.8541236007616423,2.937589175692942
-0.00469075,0.8511378969618557,2.934611212965547
-0.0046895,0.849147427761997,2.932956789228105
-0.004688250000000001,0.8451664893622798,2.930640595995686
-0.004687,0.8415172958292056,2.926008209530847
-0.004685750000000001,0.8378681022961332,2.924022901045918
-0.0046845,0.8362093779629161,2.922368477308475
-0.004683250000000001,0.8348823984963442,2.922368477308475
-0.004682,0.832891929296485,2.919390514581079
-0.00468075,0.8309014600966251,2.917736090843636
-0.0046795,0.8282475011634816,2.916743436601171
-0.00467825,0.8259252870969798,2.914427243368752
-0.004677000000000001,0.8222760935639056,2.911118395893867
-0.00467575,0.8186269000308315,2.907478663671494
-0.004674500000000001,0.814645961631116,2.905162470439076
-0.00467325,0.8113285129646832,2.901522738216702
-0.004672,0.8066840848316779,2.897552121246839
-0.00467075,0.8023714015653195,2.893912389024468
-0.0046695,0.7990539528988871,2.890603541549583
-0.004668250000000001,0.7960682490991005,2.888287348317164
-0.004667,0.7917555658327401,2.88497850084228
-0.004665750000000001,0.7874428825663798,2.881007883872419
-0.0046645,0.7837936890333057,2.877368151650046
-0.004663250000000001,0.781139730100162,2.874390188922651
-0.004662,0.7778222814337298,2.871081341447765
-0.00466075,0.7741730879006543,2.869096032962833
-0.0046595,0.7711873841008677,2.866118070235439
-0.00465825,0.7691969149010074,2.864794531245483
