data/oldScopeData/2.2V scope (pitte litt distorsjon).csv

#Digilent WaveForms Oscilloscope Acquisition
#Device Name: Discovery2
#Serial Number: SN:210321B81678
#Date Time: 2025-08-30 13:11:17.631
#Sample rate: 800000Hz
#Samples: 8192
#Trigger: Source: Channel 1 Type: Edge Condition: Rising Level: 0 V Hyst.: Auto HoldOff: 0 s
#Channel 1: Range: 500 mV/div Offset: 0 V Sample Mode: Average
#Channel 2: Range: 500 mV/div Offset: -2 V Sample Mode: Average
#Wavegen Channel 1: Running
#Mode: Simple
#Type: Sine
#Frequency: 1 kHz
#Period: 1 ms
#Amplitude: 2.2 V
#Offset: 0 V
#Symmetry: 50 %
#Phase: 0 °
#Power Supplies: ON
#Positive Supply: ON
#Voltage: 5 V
#Negative Supply: ON
#Voltage: -2 V

#2,4kHz
#raw
#
Time (s),Channel 1 (V),Channel 2 (V)
-0.005119350000000001,-1.341363926682416,0.4605859559944314
-0.0051181,-1.329421111483264,0.4728286916515039
-0.00511685,-1.318805275750681,0.4837478883186273
-0.005115600000000001,-1.308852929751392,0.4940053154907644
-0.00511435,-1.297905349152169,0.5072407053903023
-0.005113100000000001,-1.285962533953018,0.5191525562998864
-0.00511185,-1.276341932820368,0.5304026377144937
-0.005110600000000001,-1.264067372754578,0.5423144886240722
-0.00510935,-1.251129322955492,0.555880763271104
-0.0051081,-1.241508721822836,0.5661381904432519
-0.00510685,-1.228902416890404,0.5793735803427837
-0.0051056,-1.216296111957962,0.5916163159998614
-0.005104350000000001,-1.206343765958673,0.6031972821619518
-0.0051031,-1.194732695626164,0.6157709025665128
-0.005101850000000001,-1.181131156093797,0.6296680619610275
-0.0051006,-1.170515320361218,0.6402563738806579
-0.005099350000000001,-1.157577270562142,0.6541535332751663
-0.0050981,-1.143975731029769,0.6673889231747105
-0.00509685,-1.133028150430542,0.6802934283267654
-0.0050956,-1.120753590364752,0.6925361639838326
-0.00509435,-1.108147285432308,0.7067642081258418
-0.005093100000000001,-1.094545745899947,0.720330482772862
-0.00509185,-1.082271185834152,0.732904103177423
-0.005090600000000001,-1.069333136035077,0.7471321473194197
-0.00508935,-1.057722065702563,0.7587131134815217
-0.005088100000000001,-1.044784015903487,0.7726102728760301
-0.00508685,-1.0318459661044,0.7865074322705514
-0.0050856,-1.018907916305313,0.7987501679276302
-0.005084350000000001,-1.005638121639595,0.8126473273221386
-0.0050831,-0.9917048372405849,0.8272062562116302
-0.005081850000000001,-0.9774398079749314,0.8424269545960987
-0.0050806,-0.9664922273757089,0.8553314597481483
-0.005079350000000001,-0.9518954532434191,0.8688977343951683
-0.0050781,-0.937630423977759,0.8847802022746201
-0.005076850000000001,-0.9256876087786127,0.8953685141942455
-0.0050756,-0.9110908346463107,0.9099274430837418
-0.00507435,-0.8974892951139372,0.9254790262157055
-0.005073100000000001,-0.8838877555815762,0.9400379551051905
-0.00507185,-0.8706179609158521,0.9536042297522169
-0.005070600000000001,-0.8556894419169124,0.9688249281366854
-0.00506935,-0.8420879023845451,0.9840456265211539
-0.005068100000000001,-0.828818107718827,0.9966192469257091
-0.00506685,-0.8135578438532383,1.012832599552649
-0.0050656,-0.7986293248542933,1.027060643694658
-0.00506435,-0.78701825452179,1.04029603359419
-0.0050631,-0.7720897355228437,1.056840270968619
-0.005061850000000001,-0.7574929613905537,1.071068315110616
-0.0050606,-0.7452184013247589,1.083972820262665
-0.005059350000000001,-0.7282994131259606,1.101178827132064
-0.0050581,-0.7130391492603778,1.117723064506486
-0.005056850000000001,-0.7014280789278745,1.130958454406018
-0.0050556,-0.6858360701956433,1.146179152790493
-0.00505435,-0.6699123165967684,1.161730735922456
-0.0050531,-0.6569742667976933,1.175297010569476
-0.00505185,-0.6427092375320325,1.191510363196417
-0.005050600000000001,-0.6264537390665278,1.208054600570832
-0.00504935,-0.6118569649342313,1.224267953197766
-0.005048100000000001,-0.5979236805352272,1.237503343097298
-0.00504685,-0.5810046923364226,1.254378465219215
-0.005045600000000001,-0.5677348976707044,1.269268278856188
-0.00504435,-0.5528063786717587,1.28515074673564
-0.0050431,-0.5365508802062393,1.302687638352535
-0.00504185,-0.5202953817407346,1.318900990979462
-0.0050406,-0.5073573319416536,1.331474611384023
-0.005039350000000001,-0.4917653232094277,1.349011503000911
-0.0050381,-0.4768368042104881,1.364232201385379
-0.005036850000000001,-0.4625717749448411,1.379122015022353
-0.0050356,-0.4443258072794639,1.396989791386735
-0.005034350000000001,-0.4287337985472451,1.41353402876115
-0.0050331,-0.415795748748157,1.427762072903161
-0.00503185,-0.4021942092157818,1.442982771287637
-0.005030600000000001,-0.3846117312837052,1.460188778157029
-0.00502935,-0.3703467020180518,1.475078591794009
-0.005028100000000001,-0.3544229484191828,1.492946368158385
-0.00502685,-0.335845235887169,1.510483259775273
-0.005025600000000001,-0.3202532271549502,1.527358381897176
-0.00502435,-0.3043294735560742,1.544895273514071
-0.0050231,-0.2874104853572682,1.563424819373432
-0.00502185,-0.2704914971584776,1.580961710990312
-0.0050206,-0.2565582127594597,1.594527985637346
-0.005019350000000001,-0.2399709694273121,1.611733992506737
-0.0050181,-0.2253741952950155,1.628609114628648
-0.005016850000000001,-0.2104456762960759,1.642837158770651
-0.0050156,-0.19485366756385,1.66004316564005
-0.005014350000000001,-0.1782664242317024,1.676587403014465
-0.0050131,-0.1636696500993982,1.69213898614643
-0.00501185,-0.1474141516338792,1.70868322352086
-0.0050106,-0.1321538877683034,1.725558345642763
-0.00500935,-0.1175571136360001,1.739786389784774
-0.005008100000000001,-0.1026285946370672,1.757323281401654
-0.00500685,-0.0857096064382689,1.773536634028588
-0.005005600000000001,-0.07111283230597235,1.79008087140301
-0.00500435,-0.05518907870710336,1.805963339282455
-0.005003100000000001,-0.04026055970817048,1.823169346151847
-0.00500185,-0.02400506124265163,1.838720929283812
-0.0050006,-0.008413052510418666,1.854603397163265
-0.00499935,0.007178956221800114,1.872802058275122
-0.0049981,0.02376619955395529,1.889677180397032
-0.004996850000000001,0.03703599421967944,1.904236109286524
-0.0049956,0.05329149268519151,1.922765655145877
-0.004994350000000001,0.07054222575062506,1.938979007772804
-0.0049931,0.08679772421614498,1.955854129894722
-0.004991850000000001,0.1033849675482926,1.975376329996531
-0.0049906,0.1212991903470278,1.993905875855893
-0.00498935,0.1368911990792615,2.010450113230323
-0.004988100000000001,0.154141932144695,2.026663465857249
-0.00498685,0.1710609203434933,2.045193011716603
-0.004985600000000001,0.1823402458093588,2.05842840161614
-0.00498435,0.1969370199416554,2.074641754243074
-0.004983100000000001,0.2148512427403748,2.092178645859954
-0.00498185,0.2297797617393226,2.108061113739407
-0.0049806,0.2443765358716267,2.123943581618861
-0.00497935,0.2609637792037744,2.141811357983229
-0.0049781,0.2765557879360063,2.158355595357658
-0.004976850000000001,0.2898255826017244,2.171921870004677
-0.0049756,0.307739805400452,2.190451415864031
-0.004974350000000001,0.3230000692660348,2.20765742273343
-0.0049731,0.3356063741984727,2.222216351622921
-0.004971850000000001,0.3518618726639774,2.239753243239801
-0.0049706,0.3681173711294968,2.256297480614232
-0.00496935,0.3813871657952285,2.270525524756243
-0.0049681,0.3979744091273761,2.289385955363076
-0.00496685,0.4142299075928954,2.305599307990017
-0.004965600000000001,0.4298219163251141,2.321812660616944
-0.00496435,0.4457456699239831,2.338687782738855
-0.004963100000000001,0.4629964029894245,2.356886443850719
-0.00496185,0.4779249219883641,2.374423335467607
-0.004960600000000001,0.4948439101871547,2.391629342336998
-0.00495935,0.5110994086526744,2.409166233953894
-0.0049581,0.5263596725182637,2.424717817085858
-0.00495685,0.5406247017839108,2.441592939207761
-0.0049556,0.5558849656494935,2.457475407087207
-0.004954350000000001,0.5704817397817901,2.472365220724187
-0.0049531,0.583419789580871,2.486924149613679
-0.004951850000000001,0.5993435431797328,2.50413015648307
-0.0049506,0.6146038070453228,2.5206743938575
-0.004949350000000001,0.6282053465776839,2.535233322746985
-0.0049481,0.6431338655766298,2.55277021436388
-0.00494685,0.6577306397089322,2.567990912748354
-0.004945600000000001,0.6706686895080073,2.581888072142863
-0.00494435,0.6865924431068763,2.597770540022308
-0.004943100000000001,0.7011892172391728,2.613322123154266
-0.00494185,0.7164494811047556,2.630528130023665
-0.004940600000000001,0.7330367244369033,2.648395906388033
-0.00493935,0.7486287331691367,2.666263682752417
-0.004938100000000001,0.7628937624347837,2.681484381136878
-0.00493685,0.7764953019671573,2.697035964268842
-0.0049356,0.793746035032605,2.714241971138249
-0.004934350000000001,0.807347574564966,2.729793554270199
-0.0049331,0.8209491140973333,2.744021598412202
-0.004931850000000001,0.8365411228295592,2.761227605281601
-0.0049306,0.8498109174952833,2.776117418918581
-0.004929350000000001,0.8624172224277155,2.790345463060578
-0.0049281,0.8773457414266609,2.805566161445053
-0.00492685,0.890615536092391,2.821117744577016
-0.0049256,0.9038853307581092,2.835014903971524
-0.00492435,0.917486870290483,2.849573832861024
-0.004923100000000001,0.9320836444227729,2.866779839730416
-0.00492185,0.9446899493552109,2.88067699912493
-0.004920600000000001,0.9612771926873661,2.897552121246841
-0.00491935,0.9772009462862351,2.915089012863729
-0.004918100000000001,0.9904707409519532,2.928986172258237
-0.00491685,1.005067515084256,2.945861294380154
-0.0049156,1.018005564883342,2.960751108017141
-0.00491435,1.029284890349202,2.973986497916672
-0.0049131,1.04321817474822,2.986891003068729
-0.004911850000000001,1.058146693747152,3.003766125190633
-0.0049106,1.069757764079661,3.017663284585147
-0.004909350000000001,1.081368834412164,3.029906020242214
-0.0049081,1.093975139344608,3.045126718626689
-0.004906850000000001,1.107576678876969,3.058692993273708
-0.0049056,1.119187749209483,3.071928383173252
-0.00490435,1.1331210336085,3.087149081557728
-0.004903100000000001,1.146390828274218,3.103362434184655
-0.00490185,1.158997133206656,3.116597824084193
-0.004900600000000001,1.171935183005737,3.130825868226196
-0.00489935,1.18620021227139,3.146377451358153
-0.004898100000000001,1.198806517203822,3.160605495500149
-0.00489685,1.212408056736195,3.176157078632113
-0.004895600000000001,1.225677851401914,3.190716007521598
-0.00489435,1.239279390934287,3.205936705906073
-0.0048931,1.2508904612668,3.218841211058128
-0.004891850000000001,1.261506296999375,3.230753061967707
-0.0048906,1.27278562246524,3.243988451867245
-0.004889350000000001,1.284728437664392,3.255900302776829
-0.0048881,1.295344273396971,3.269135692676366
-0.004886850000000001,1.307287088596118,3.281709313080922
-0.0048856,1.317902924328702,3.294613818232977
-0.00488435,1.32885050492793,3.307518323385032
-0.0048831,1.339798085527147,3.319761059042099
-0.00488185,1.349750431526447,3.331011140456713
-0.004880600000000001,1.364015460792094,3.345900954093686
-0.00487935,1.376290020857889,3.359467228740713
-0.004878100000000001,1.387901091190397,3.373695272882716
-0.00487685,1.399180416656263,3.386599778034765
-0.004875600000000001,1.410791486988766,3.400496937429274
-0.00487435,1.422734302187923,3.412739673086353
-0.0048731,1.432686648187222,3.425644178238408
-0.00487185,1.444961208253011,3.437886913895475
-0.0048706,1.455577043985595,3.450129649552553
-0.004869350000000001,1.46519764511824,3.462041500462131
-0.0048681,1.476145225717463,3.47494600561418
-0.004866850000000001,1.485434081983465,3.48487254803883
-0.0048656,1.49405944851619,3.495791744705953
-0.004864350000000001,1.505338773982051,3.507703595615531
-0.0048631,1.513632395648134,3.517961022787679
-0.00486185,1.522589507047502,3.528549334707315
-0.004860600000000001,1.53254185304679,3.541784724606847
-0.00485935,1.543821178512656,3.55369657551643
-0.004858100000000001,1.553441779645306,3.564284887436061
-0.00485685,1.562730635911313,3.575865853598157
-0.004855600000000001,1.573014726777245,3.588439474002712
-0.00485435,1.583298817643185,3.599689555417325
-0.004853100000000001,1.593582908509117,3.61027786733695
-0.00485185,1.604862233974987,3.623513257236493
-0.0048506,1.611828876174497,3.634101569156129
-0.004849350000000001,1.621449477307142,3.645682535318219
-0.0048481,1.632397057906365,3.657263501480315
-0.004846850000000001,1.641022424439085,3.66685915915748
-0.0048456,1.649316046105163,3.67744747107711
-0.004844350000000001,1.65794141263788,3.68704312875427
-0.0048431,1.664576309970746,3.696307901683952
-0.00484185,1.671874697036898,3.704580020371167
-0.0048406,1.679836573836329,3.714175678048328
-0.00483935,1.687466705769123,3.724102220472985
-0.004838100000000001,1.694433347968625,3.73270522390768
-0.00483685,1.701731735034773,3.741639112089868
-0.004835600000000001,1.709693611834208,3.750903885019545
-0.00483435,1.717323743766999,3.759506888454244
-0.004833100000000001,1.725949110299716,3.771749624111311
-0.00483185,1.733579242232511,3.780683512293505
-0.0048306,1.741872863898593,3.790940939465651
-0.00482935,1.74950299583138,3.799213058152858
-0.0048281,1.757796617497461,3.809470485325004
-0.004826850000000001,1.764099769963677,3.818404373507188
-0.0048256,1.772725136496398,3.828000031184353
-0.004824350000000001,1.780687013295828,3.836933919366537
-0.0048231,1.786326676028765,3.844875153306264
-0.004821850000000001,1.790971104161766,3.852154617751007
-0.0048206,1.79760600149463,3.860095851690732
-0.00481935,1.803577409094208,3.867375316135481
-0.004818100000000001,1.80822183722721,3.873993011085247
-0.00481685,1.813529755093499,3.88193424502497
-0.004815600000000001,1.820164652426361,3.888882824722227
-0.00481435,1.825472570292651,3.896493173914461
-0.004813100000000001,1.832770957358796,3.903441753611716
-0.00481185,1.838410620091732,3.913037411288884
-0.004810600000000001,1.843718537958019,3.91965510623865
-0.00480935,1.850353435290884,3.927596340178376
-0.0048081,1.856324842890462,3.93586845886559
-0.004806850000000001,1.861632760756749,3.944140577552798
-0.0048056,1.866940678623039,3.95009650300759
-0.004804350000000001,1.872248596489329,3.957045082704847
-0.0048031,1.877224769488975,3.963993662402105
-0.004801850000000001,1.882864432221905,3.971273126846847
-0.0048006,1.887508860354911,3.977229052301642
-0.00479935,1.891821543621272,3.98252320826146
-0.0047981,1.893480267954487,3.987486479473784
-0.00479685,1.898788185820778,3.993111520181091
-0.004795600000000001,1.901442144753922,3.998074791393415
-0.00479435,1.904759593420353,4.002707177858253
-0.004793100000000001,1.907081807486855,4.00767044907058
-0.00479185,1.91305321508643,4.014949913515325
-0.004790600000000001,1.915375429152931,4.018589645737697
-0.00478935,1.919688112419292,4.025869110182444
-0.0047881,1.925327775152227,4.032155920384726
-0.00478685,1.928645223818656,4.036126537354586
-0.0047856,1.932957907085018,4.042744232304358
-0.004784350000000001,1.935611866018161,4.048700157759147
-0.0047831,1.938929314684593,4.052009005234032
-0.004781850000000001,1.942246763351022,4.057303161193844
-0.0047806,1.945564212017455,4.06292820190115
-0.004779350000000001,1.947222936350669,4.065906164628545
-0.0047781,1.949213405550529,4.069215012103431
-0.00477685,1.950208640150459,4.072192974830829
-0.004775600000000001,1.952862599083603,4.075170937558223
-0.00477435,1.954189578550175,4.078479785033108
-0.004773100000000001,1.954521323416818,4.08211951725548
-0.00477185,1.956511792616677,4.084104825740411
-0.004770600000000001,1.95684353748332,4.087082788467805
-0.00476935,1.958170516949892,4.089729866447715
-0.004768100000000001,1.960824475883036,4.094031368165062
-0.00476685,1.96215145534961,4.097340215639949
-0.0047656,1.965137159149399,4.100318178367346
-0.004764350000000001,1.967459373215899,4.104950564832183
-0.0047631,1.967459373215899,4.106935873317114
-0.004761850000000001,1.968454607815829,4.108921181802044
-0.0047606,1.969781587282401,4.112891798771906
-0.004759350000000001,1.971108566748973,4.114546222509347
-0.0047581,1.972435546215546,4.117855069984232
-0.00475685,1.973762525682118,4.121163917459118
-0.0047556,1.973762525682118,4.122156571701582
-0.00475435,1.973430780815475,4.123480110691537
-0.004753100000000001,1.974094270548761,4.124472764934001
-0.00475185,1.972103801348903,4.124141880186513
-0.004750600000000001,1.972435546215546,4.125796303923955
-0.00474935,1.97077682188233,4.12678895816642
-0.004748100000000001,1.970113332149044,4.12678895816642
-0.00474685,1.967791118082542,4.126458073418932
-0.0047456,1.965800648882683,4.124472764934001
-0.00474435,1.964473669416111,4.124472764934001
-0.0047431,1.965468904016041,4.128774266651352
-0.004741850000000001,1.965468904016041,4.129766920893816
-0.0047406,1.962814945082896,4.128443381903863
-0.004739350000000001,1.96215145534961,4.129105151398839
-0.0047381,1.960492731016394,4.129105151398839
-0.004736850000000001,1.960824475883037,4.129105151398839
-0.0047356,1.958834006683179,4.130428690388793
-0.00473435,1.95684353748332,4.130428690388793
-0.004733100000000001,1.957838772083249,4.130759575136282
-0.00473185,1.954189578550175,4.129105151398839
-0.004730600000000001,1.952862599083603,4.128443381903863
-0.00472935,1.950540385017101,4.127781612408886
-0.004728100000000001,1.946891191484029,4.125796303923956
-0.00472685,1.943241997950953,4.123810995439024
-0.004725600000000001,1.941915018484381,4.123149225944047
-0.00472435,1.938265824951306,4.120171263216651
-0.0047231,1.93461663141823,4.118516839479208
-0.004721850000000001,1.930303948151872,4.115538876751813
-0.0047206,1.926986499485441,4.113553568266883
-0.004719350000000001,1.921678581619151,4.110244720791998
-0.0047181,1.921346836752508,4.110244720791998
-0.004716850000000001,1.918029388086078,4.107597642812092
-0.0047156,1.914711939419646,4.106274103822137
-0.00471435,1.911394490753213,4.103957910589717
-0.0047131,1.907745297220141,4.101972602104787
-0.00471185,1.905091338286994,4.099656408872366
-0.004710600000000001,1.900778655020636,4.096678446144971
-0.00470935,1.896465971754275,4.093700483417575
-0.004708100000000001,1.892485033354558,4.090722520690179
-0.00470685,1.888835839821484,4.08840632745776
-0.004705600000000001,1.88618188088834,4.086090134225342
-0.00470435,1.880210473288763,4.082781286750457
-0.0047031,1.874570810555828,4.077487130790639
-0.00470185,1.868931147822898,4.072192974830827
-0.0047006,1.861632760756747,4.067560588365986
-0.004699350000000001,1.857320077490389,4.063589971396127
-0.0046981,1.851348669890813,4.058957584931289
-0.004696850000000001,1.844713772557954,4.051678120486547
-0.0046956,1.840069344424948,4.048369273011659
-0.004694350000000001,1.834429681692017,4.044398656041799
-0.0046931,1.828126529225796,4.039435384829471
-0.00469185,1.824477335692719,4.035795652607096
-0.0046906,1.818837672959789,4.03116326614226
-0.00468935,1.811871030760284,4.026530879677421
-0.004688100000000001,1.807558347493923,4.021898493212583
-0.00468685,1.801918684760991,4.017596991495233
-0.004685600000000001,1.794620297694846,4.011971950787932
-0.00468435,1.788317145228623,4.007008679575603
-0.004683100000000001,1.783340972228979,4.002045408363279
-0.00468185,1.775710840296185,3.995096828666019
-0.0046806,1.76907594296332,3.989802672706201
-0.004679350000000001,1.761445811030532,3.983184977756435
-0.0046781,1.752820444497811,3.974912859069224
-0.004676850000000001,1.745522057431663,3.967633394624477
-0.0046756,1.737891925498872,3.962339238664662
-0.004674350000000001,1.729266558966155,3.953405350482478
-0.0046731,1.719977702700144,3.94579500129024
-0.00467185,1.713011060500636,3.939508191087957
-0.0046706,1.70670790803442,3.933221380885679
-0.00466935,1.698082541501696,3.926934570683395
-0.004668100000000001,1.690784154435551,3.919985990986141
-0.00466685,1.684149257102689,3.914691835026326
-0.004665600000000001,1.675855635436611,3.906750601086603
-0.00466435,1.668557248370463,3.899471136641858
-0.004663100000000001,1.660927116437675,3.892522556944603
-0.00466185,1.652633494771594,3.884912207752366
-0.0046606,1.644339873105513,3.877632743307618
-0.00465935,1.638036720639297,3.872669472095294
-0.0046581,1.628416119506643,3.863404699165612
-0.004656850000000001,1.618132028640711,3.853147271993475
