data/oldScopeData/2.5 V Scope.csv

#Digilent WaveForms Oscilloscope Acquisition
#Device Name: Discovery2
#Serial Number: SN:210321B81678
#Date Time: 2025-08-30 13:12:00.482
#Sample rate: 800000Hz
#Samples: 8192
#Trigger: Source: Channel 1 Type: Edge Condition: Rising Level: 0 V Hyst.: Auto HoldOff: 0 s
#Channel 1: Range: 500 mV/div Offset: 0 V Sample Mode: Average
#Channel 2: Range: 500 mV/div Offset: -2 V Sample Mode: Average
#Wavegen Channel 1: Running
#Mode: Simple
#Type: Sine
#Frequency: 1 kHz
#Period: 1 ms
#Amplitude: 2.5 V
#Offset: 0 V
#Symmetry: 50 %
#Phase: 0 °
#Power Supplies: ON
#Positive Supply: ON
#Voltage: 5 V
#Negative Supply: ON
#Voltage: -2 V

#2,4kHz
#raw
#
Time (s),Channel 1 (V),Channel 2 (V)
-0.005119699074074074,-1.52349185846948,0.2865405788155084
-0.005118449074074074,-1.511880788136971,0.2997759687150463
-0.005117199074074073,-1.500269717804457,0.3126804738671022
-0.005115949074074074,-1.487663412872025,0.3272394027565872
-0.005114699074074074,-1.476052342539516,0.3401439079086368
-0.005113449074074074,-1.463777782473721,0.3530484130606861
-0.005112199074074074,-1.451503222407927,0.3676073419501777
-0.005110949074074074,-1.439892152075423,0.3805118471022214
-0.005109699074074074,-1.426290612543051,0.3950707759917189
-0.005108449074074073,-1.413352562743964,0.4099605896287051
-0.005107199074074074,-1.401409747544818,0.423195979528237
-0.005105949074074074,-1.388139952879087,0.4374240236702468
-0.005104699074074074,-1.374538413346726,0.4523138373072202
-0.005103449074074074,-1.362927343014218,0.4652183424592695
-0.005102199074074074,-1.347335334281992,0.481762579833692
-0.005100949074074074,-1.334065539616268,0.4963215087231836
-0.005099699074074074,-1.321790979550479,0.5098877833702038
-0.005098449074074074,-1.308189440018106,0.52477759700719
-0.005097199074074073,-1.292929176152517,0.5399982953916652
-0.005095949074074074,-1.279327636620156,0.5548881090286386
-0.005094699074074074,-1.265062607354495,0.5697779226656257
-0.005093449074074074,-1.250465833222206,0.5849986210500873
-0.005092199074074074,-1.237196038556482,0.6005502041820443
-0.005090949074074074,-1.223926243890763,0.6147782483240412
-0.005089699074074074,-1.208997724891818,0.630660716203493
-0.005088449074074074,-1.193737461026242,0.6465431840829311
-0.005087199074074074,-1.179472431760582,0.6614329977199185
-0.005085949074074073,-1.164543912761635,0.6783081198418365
-0.005084699074074074,-1.149615393762702,0.6941905877212746
-0.005083449074074074,-1.135350364497049,0.7084186318632779
-0.005082199074074074,-1.118763121164894,0.7243010997427233
-0.005080949074074074,-1.103834602165954,0.7415071066121226
-0.005079699074074074,-1.090233062633593,0.7557351507541192
-0.005078449074074074,-1.074309309034718,0.772941157623525
-0.005077199074074074,-1.058385555435856,0.7891545102504516
-0.005075949074074074,-1.042793546703623,0.8050369781299043
-0.005074699074074073,-1.027865027704676,0.8215812155043347
-0.005073449074074074,-1.011609529239171,0.8391181071212144
-0.005072199074074074,-0.9973444999735176,0.8546696902531714
-0.005070949074074074,-0.9810890015080055,0.8702212733851282
-0.005069699074074074,-0.9648335030424935,0.8877581650020161
-0.005068449074074074,-0.9479145148437028,0.9052950566188958
-0.005067199074074074,-0.9336494855780417,0.9205157550033722
-0.005065949074074073,-0.9170622422458786,0.9377217618727794
-0.005064699074074074,-0.8998115091804452,0.9555895382371475
-0.005063449074074074,-0.8855464799147842,0.9701484671266477
-0.005062199074074074,-0.8689592365826365,0.9890088977334808
-0.005060949074074074,-0.8517085035171952,1.00621490460288
-0.005059699074074074,-0.8367799845182554,1.021766487734837
-0.005058449074074074,-0.8198609963194572,1.04029603359419
-0.005057199074074074,-0.8026102632540236,1.057502040463581
-0.005055949074074074,-0.7873499993884331,1.074046277838011
-0.005054699074074073,-0.7694357765896974,1.091583169454908
-0.005053449074074074,-0.751853298657621,1.110112715314252
-0.005052199074074074,-0.7369247796586732,1.125995183193706
-0.005050949074074074,-0.7190105568599537,1.144193844305562
-0.005049699074074074,-0.7020915686611554,1.162723390164915
-0.005048449074074074,-0.6858360701956507,1.179598512286818
-0.005047199074074074,-0.6705758063300605,1.196473634408737
-0.005045949074074074,-0.6519980937980552,1.215003180268081
-0.005044699074074074,-0.6337521261326761,1.23419449562242
-0.005043449074074073,-0.618491862267085,1.250407848249362
-0.005042199074074074,-0.6002458946017226,1.269268278856195
-0.005040949074074074,-0.5826634166696381,1.287136055220571
-0.005039699074074074,-0.5670714079374123,1.304011177342482
-0.005038449074074074,-0.5484936954053984,1.322209838454346
-0.005037199074074074,-0.529915982873393,1.342062923303644
-0.005035949074074074,-0.5153192087410881,1.357283621688122
-0.005034699074074074,-0.4970732410757257,1.376474937042443
-0.005033449074074074,-0.4794907631436329,1.39599713714427
-0.005032199074074073,-0.4622400300781833,1.413864913508655
-0.005030949074074074,-0.4443258072794639,1.433056228862976
-0.005029699074074074,-0.4260798396140932,1.450924005227352
-0.005028449074074074,-0.409492596281938,1.469122666339217
-0.005027199074074074,-0.3915783734832105,1.486990442703593
-0.005025949074074074,-0.3739958955511339,1.505850873310426
-0.005024699074074074,-0.3570769073523277,1.524711303917276
-0.005023449074074073,-0.3401579191535205,1.542579080281661
-0.005022199074074074,-0.3205849720215863,1.561439510888493
-0.005020949074074074,-0.3030024940894942,1.580630826242831
-0.005019699074074074,-0.2864152507573466,1.596513294122269
-0.005018449074074074,-0.2678375382253328,1.617359033214041
-0.005017199074074074,-0.2489280808266759,1.636219463820882
-0.005015949074074074,-0.2323408374945207,1.654418124932747
-0.005014699074074074,-0.2124361454959435,1.675263864024509
-0.005013449074074074,-0.1921997086307052,1.696771372611268
-0.005012199074074073,-0.176939444765113,1.712984725238212
-0.005010949074074074,-0.15637126303325,1.733830464329974
-0.005009699074074074,-0.1374618056345857,1.753683549179289
-0.005008449074074074,-0.121206307169081,1.77088955604868
-0.005007199074074074,-0.1036238292369965,1.791073525645476
-0.005005949074074074,-0.08471437183833959,1.809603071504828
-0.005004699074074074,-0.06845887337282751,1.827139963121716
-0.005003449074074074,-0.05253511977396579,1.843684200496131
-0.005002199074074074,-0.03263042777537233,1.86452993958791
-0.005000949074074073,-0.01405271524335097,1.884713909184713
-0.004999699074074074,0.002534528088796663,1.901258146559128
-0.004998449074074074,0.02144398548745357,1.9221038856509
-0.004997199074074074,0.03803122881960876,1.940302546762765
-0.004995949074074074,0.05561370675169323,1.958170323127141
-0.004994699074074074,0.07385967441705564,1.97769252322895
-0.004993449074074074,0.09276913181572084,1.997214723330778
-0.004992199074074074,0.1090246302812255,2.014751614947657
-0.004990949074074074,0.1279340876798898,2.035266469291949
-0.004989699074074073,0.1478387796784843,2.056773977878706
-0.004988449074074074,0.1660847473438467,2.074310869495586
-0.004987199074074074,0.1866529290757192,2.096480147577312
-0.004985949074074074,0.2048988967410899,2.117325886669084
-0.004984699074074074,0.2208226503399588,2.132877469801041
-0.004983449074074074,0.2380733834053924,2.151737900407874
-0.004982199074074074,0.2559876062041278,2.170267446267235
-0.004980949074074073,0.2729065944029347,2.188796992126597
-0.004979699074074074,0.291816051801583,2.208650076975895
-0.004978449074074074,0.3090667848670319,2.22651785334028
-0.004977199074074074,0.3256540281991796,2.244716514452136
-0.004975949074074074,0.3419095266646917,2.262584290816512
-0.004974699074074074,0.3604872391967054,2.281113836675865
-0.004973449074074074,0.3784014619954331,2.301628691020149
-0.004972199074074074,0.3939934707276518,2.319496467384517
-0.004970949074074074,0.4115759486597434,2.338026013243878
-0.004969699074074073,0.4301536611917644,2.356555559103239
-0.004968449074074074,0.4460774147906262,2.37376156597263
-0.004967199074074074,0.4659821067892218,2.394276420316924
-0.004965949074074074,0.4865502885210848,2.415783928903663
-0.004964699074074074,0.5024740421199538,2.433982590015527
-0.004963449074074074,0.5210517546519676,2.453835674864834
-0.004962199074074074,0.5402929569172676,2.474019644461629
-0.004960949074074074,0.5575436899827011,2.492549190320974
-0.004959699074074074,0.5741309333148642,2.509424312442893
-0.004958449074074073,0.5913816663803134,2.529608282039697
-0.004957199074074074,0.608632399445747,2.54846871264653
-0.004955949074074074,0.624887897911259,2.564351180525975
-0.004954699074074074,0.6418068861100573,2.583542495880305
-0.004953449074074074,0.6573988948422832,2.600748502749704
-0.004952199074074074,0.6736543933077879,2.617623624871607
-0.004950949074074074,0.6925638507064522,2.638138479215899
-0.004949699074074074,0.7104780735051717,2.656006255580267
-0.004948449074074074,0.7227526335709746,2.671226953964744
-0.004947199074074073,0.7396716217697814,2.689425615076617
-0.004945949074074074,0.7585810791684298,2.708947815178426
-0.004944699074074074,0.7725143635674402,2.724499398310384
-0.004943449074074074,0.7884381171663091,2.742698059422248
-0.004942199074074074,0.8086745540315384,2.763874683261509
-0.004940949074074074,0.8255935422303291,2.782073344373365
-0.004939699074074074,0.8428442752957781,2.799941120737749
-0.004938449074074074,0.8610902429611405,2.820455975082024
-0.004937199074074074,0.8780092311599471,2.838323751446409
-0.004935949074074074,0.8912790258256797,2.853875334578375
-0.004934699074074074,0.9101884832243281,2.872735765185208
-0.004933449074074074,0.925780491956554,2.889941772054607
-0.004932199074074074,0.9393820314889213,2.905162470439075
-0.004930949074074074,0.9563010196877195,2.924022901045917
-0.004929699074074074,0.9725565181532242,2.941228907915308
-0.004928449074074074,0.9871532922855282,2.956780491047273
-0.004927199074074073,1.002745301017762,2.97431738266417
-0.004925949074074074,1.020327778949839,2.994170467513467
-0.004924699074074074,1.035256297948786,3.010383820140409
-0.004923449074074074,1.052507031014219,3.028251596504778
-0.004922199074074074,1.069426019213018,3.048104681354084
-0.004920949074074074,1.084354538211957,3.062994494991064
-0.004919699074074074,1.100278291810826,3.080862271355441
-0.004918449074074074,1.115538555676402,3.09839916297232
-0.004917199074074074,1.12847660547549,3.111965437619355
-0.004915949074074073,1.142741634741151,3.128840559741273
-0.004914699074074074,1.158665388340013,3.146046566610664
-0.004913449074074074,1.173593907338959,3.161929034490117
-0.004912199074074074,1.18719544687132,3.177149732874579
-0.004910949074074074,1.202455710736902,3.194024854996489
-0.004909699074074074,1.217052484869192,3.210238207623416
-0.004908449074074074,1.231649259001496,3.227444214492822
-0.004907199074074074,1.248568247200286,3.245642875604678
-0.004905949074074074,1.264823745665806,3.262517997726598
-0.004904699074074073,1.278757030064824,3.278400465606051
-0.004903449074074074,1.294680783663685,3.295937357222931
-0.004902199074074074,1.309609302662625,3.313474248839818
-0.004900949074074074,1.323542587061635,3.327040523486845
-0.004899699074074074,1.336480636860716,3.342261221871313
-0.004898449074074074,1.351740900726292,3.359467228740705
-0.004897199074074074,1.365342440258666,3.374026157630204
-0.004895949074074074,1.377617000324456,3.387923317024713
-0.004894699074074074,1.390886794990185,3.404136669651653
-0.004893449074074074,1.403493099922629,3.41704117480371
-0.004892199074074074,1.416431149721704,3.432923642683148
-0.004890949074074074,1.430696178987358,3.447813456320128
-0.004889699074074074,1.442638994186509,3.461710615714643
-0.004888449074074074,1.454250064519018,3.474615120866692
-0.004887199074074074,1.469842073251237,3.492152012483571
-0.004885949074074074,1.484107102516897,3.507703595615537
-0.004884699074074073,1.497376897182628,3.522593409252525
-0.004883449074074074,1.511310181581632,3.540130300869405
-0.004882199074074074,1.525243465980648,3.55535099925388
-0.004880949074074074,1.536854536313151,3.569579043395876
-0.004879699074074074,1.549792586112232,3.582814433295414
-0.004878449074074074,1.564721105111172,3.599358670669837
-0.004877199074074074,1.574009961377179,3.612263175821886
-0.004875949074074074,1.586284521442968,3.624836796226441
-0.004874699074074074,1.598890826375411,3.63906484036845
-0.004873449074074073,1.608511427508067,3.65097669127804
-0.004872199074074074,1.62012249784057,3.663550311682595
-0.004870949074074074,1.631401823306441,3.677447471077116
-0.004869699074074074,1.643012893638944,3.691344630471625
-0.004868449074074074,1.655619198571382,3.704910905118651
-0.004867199074074074,1.668225503503814,3.719469834008136
-0.004865949074074074,1.678841339236399,3.732043454412703
-0.004864699074074074,1.690784154435546,3.745940613807212
-0.004863449074074074,1.703058714501346,3.76049954269671
-0.004862199074074073,1.714338039967216,3.774065817343742
-0.004860949074074074,1.725285620566434,3.786970322495786
-0.004859699074074074,1.737228435765585,3.8008674818903
-0.004858449074074074,1.74950299583138,3.81377198704235
-0.004857199074074074,1.759455341830673,3.826345607446911
-0.004855949074074074,1.769739432696605,3.837926573609001
-0.004854699074074074,1.778696544095973,3.849838424518591
-0.004853449074074074,1.78732191062869,3.860426736438216
-0.004852199074074074,1.797937746361273,3.873000356842782
-0.004850949074074073,1.807558347493927,3.885243092499859
-0.004849699074074074,1.815520224293358,3.895169634924508
-0.004848449074074074,1.824809080559365,3.905757946844138
-0.004847199074074074,1.834097936825372,3.916346258763769
-0.004845949074074074,1.845045517424594,3.929581648663306
-0.004844699074074074,1.855329608290526,3.94050084533042
-0.004843449074074074,1.863954974823251,3.954067119977451
-0.004842199074074073,1.874570810555834,3.965317201392063
-0.004840949074074074,1.881869197621979,3.976236398059177
-0.004839699074074074,1.894143757687778,3.988479133716255
-0.004838449074074074,1.90343261395378,3.999729215130857
-0.004837199074074074,1.912389725353144,4.010979296545464
-0.004835949074074074,1.920351602152579,4.020574954222629
-0.004834699074074074,1.928313478952013,4.03116326614226
-0.004833449074074074,1.935611866018158,4.040428039071932
-0.004832199074074074,1.943905487684239,4.050023696749101
-0.004830949074074073,1.950540385017104,4.058957584931292
-0.004829699074074074,1.957175282349963,4.067560588365988
-0.004828449074074074,1.964805414282758,4.078148900285623
-0.004827199074074074,1.972767291082189,4.08840632745776
-0.004825949074074074,1.981060912748267,4.098663754629903
-0.004824699074074074,1.989022789547698,4.108259412307063
-0.004823449074074074,1.997316411213779,4.117524185236744
-0.004822199074074074,2.004946543146567,4.127781612408882
-0.004820949074074074,2.011249695612789,4.136053731096097
-0.004819699074074073,2.01954331727887,4.145649388773267
-0.004818449074074074,2.027836938944944,4.155906815945404
-0.004817199074074074,2.031154387611375,4.161862741400196
-0.004815949074074074,2.038121029810881,4.169803975339918
-0.004814699074074074,2.041770223343955,4.177414324532153
-0.004813449074074074,2.048073375810171,4.184693788976895
-0.004812199074074074,2.05304954880982,4.19064971443169
-0.004810949074074074,2.059352701276036,4.199914487361363
-0.004809699074074074,2.063997129409043,4.207193951806113
-0.004808449074074073,2.070300281875265,4.215135185745839
-0.004807199074074074,2.076935179208124,4.223738189180535
-0.004805949074074074,2.08191135220777,4.22903234514035
-0.004804699074074074,2.088546249540632,4.237966233322538
-0.004803449074074074,2.093522422540279,4.246238352009749
-0.004802199074074074,2.099825575006495,4.254179585949469
-0.004800949074074074,2.104470003139501,4.260466396151753
-0.004799699074074073,2.110441410739079,4.267745860596501
-0.004798449074074074,2.114422349138795,4.273370901303802
-0.004797199074074074,2.1190667772718,4.280981250496041
-0.004795949074074074,2.124706440004731,4.288591599688271
-0.004794699074074074,2.13100959247095,4.29719460312297
-0.004793449074074074,2.133663551404094,4.301165220092832
-0.004792199074074074,2.135654020603953,4.304804952315204
-0.004790949074074074,2.137312744937168,4.310099108275018
-0.004789699074074074,2.140961938470243,4.313077071002416
-0.004788449074074073,2.144611132003318,4.319032996457211
-0.004787199074074074,2.147928580669748,4.324327152417023
-0.004785949074074074,2.150250794736251,4.329952193124329
-0.004784699074074074,2.153236498536037,4.333922810094188
-0.004783449074074074,2.157217436935755,4.340871389791445
-0.004782199074074074,2.16119837533547,4.344842006761305
-0.004780949074074074,2.164515824001903,4.35046704746861
-0.004779699074074074,2.167833272668333,4.355099433933447
-0.004778449074074074,2.169823741868193,4.35907005090331
-0.004777199074074073,2.172477700801339,4.364033322115639
-0.004775949074074074,2.175131659734483,4.369327478075451
-0.004774699074074074,2.177785618667627,4.372636325550336
-0.004773449074074074,2.180107832734129,4.376276057772709
-0.004772199074074074,2.182098301933987,4.381239328985036
-0.004770949074074074,2.182761791667273,4.383886406964943
-0.004769699074074074,2.183093536533917,4.385540830702386
-0.004768449074074074,2.182761791667274,4.386864369692339
-0.004767199074074074,2.184420516000489,4.390173217167224
-0.004765949074074073,2.185084005733776,4.392158525652156
-0.004764699074074074,2.185747495467062,4.394474718884574
-0.004763449074074074,2.185415750600419,4.39745268161197
-0.004762199074074074,2.187074474933634,4.400430644339366
-0.004760949074074074,2.187406219800277,4.401092413834343
-0.004759699074074074,2.189396689000135,4.40373949181425
-0.004758449074074074,2.189064944133493,4.406055685046669
-0.004757199074074073,2.189396689000136,4.408040993531602
-0.004755949074074074,2.190060178733422,4.411018956258996
-0.004754699074074074,2.191055413333351,4.413335149491415
-0.004753449074074074,2.189728433866779,4.413996918986392
-0.004752199074074074,2.190060178733422,4.416313112218811
-0.004750949074074074,2.191387158199995,4.418629305451231
-0.004749699074074074,2.190391923600065,4.419291074946207
-0.004748449074074074,2.188069709533564,4.419621959693695
-0.004747199074074074,2.186742730066991,4.418629305451231
-0.004745949074074073,2.184088771133846,4.419291074946207
-0.004744699074074074,2.183757026267203,4.419291074946207
-0.004743449074074074,2.182098301933986,4.418298420703741
-0.004742199074074074,2.179444343000843,4.417305766461276
-0.004740949074074074,2.174799914867839,4.415651342723835
-0.004739699074074074,2.172809445667982,4.41465868848137
-0.004738449074074074,2.174136425134553,4.415320457976346
-0.004737199074074074,2.172145955934695,4.416643996966299
-0.004735949074074074,2.170487231601479,4.415651342723835
-0.004734699074074073,2.167833272668334,4.414989573228858
-0.004733449074074074,2.166838038068405,4.414989573228858
-0.004732199074074074,2.16418407913526,4.41432780373388
-0.004730949074074074,2.160534885602186,4.412673379996439
-0.004729699074074074,2.158544416402327,4.41234249524895
-0.004728449074074074,2.15655394720247,4.410688071511508
-0.004727199074074074,2.154231733135967,4.409364532521554
-0.004725949074074074,2.151577774202823,4.408702763026577
-0.004724699074074074,2.147265090936462,4.405724800299181
-0.004723449074074073,2.142620662803457,4.40340860706676
-0.004722199074074074,2.138971469270384,4.400430644339366
-0.004720949074074074,2.134658786004024,4.39745268161197
-0.004719699074074074,2.130346102737664,4.394143834137085
-0.004718449074074074,2.124042950271444,4.389180562924759
-0.004717199074074074,2.1190667772718,4.386202600197365
-0.004715949074074074,2.114754094005438,4.38256286797499
-0.004714699074074073,2.111104900472361,4.379584905247592
-0.004713449074074074,2.10646047233936,4.376606942520198
-0.004712199074074074,2.101152554473069,4.3736289797928
-0.004710949074074074,2.097171616073353,4.36965836282294
-0.004709699074074074,2.093190677673636,4.367342169590521
