data/oldScopeData/200mv scope.csv

#Digilent WaveForms Oscilloscope Acquisition
#Device Name: Discovery2
#Serial Number: SN:210321B81678
#Date Time: 2025-08-30 13:08:05.094
#Sample rate: 800000Hz
#Samples: 8192
#Trigger: Source: Channel 1 Type: Edge Condition: Rising Level: 0 V Hyst.: Auto HoldOff: 0 s
#Channel 1: Range: 50 mV/div Offset: 0 V Sample Mode: Average
#Channel 2: Range: 50 mV/div Offset: -2 V Sample Mode: Average
#Wavegen Channel 1: Running
#Mode: Simple
#Type: Sine
#Frequency: 1 kHz
#Period: 1 ms
#Amplitude: 200 mV
#Offset: 0 V
#Symmetry: 50 %
#Phase: 0 °
#Power Supplies: ON
#Positive Supply: ON
#Voltage: 5 V
#Negative Supply: ON
#Voltage: -2 V

#2,4kHz
#raw
#
Time (s),Channel 1 (V),Channel 2 (V)
-0.00511875,-0.1265142250353706,1.860228437870561
-0.0051175,-0.1238602661022258,1.863206400597957
-0.005116249999999999,-0.1215380520357232,1.8648608243354
-0.005115,-0.1195475828358655,1.867177017567818
-0.005113749999999999,-0.118220603369293,1.869162326052749
-0.0051125,-0.1172253687693637,1.869493210800237
-0.005111249999999999,-0.1162301341694344,1.872140288780145
-0.00511,-0.1142396649695767,1.872471173527633
-0.00510875,-0.1135761752362896,1.873463827770099
-0.005107499999999999,-0.1149031547028613,1.872140288780145
-0.00510625,-0.1132444303696465,1.873463827770099
-0.005104999999999999,-0.1122491957697167,1.874456482012564
-0.00510375,-0.1112539611697879,1.875118251507541
-0.005102499999999999,-0.1102587265698586,1.876110905750006
-0.00510125,-0.1095952368365724,1.876772675244983
-0.005099999999999999,-0.1089317471032862,1.87743444473996
-0.00509875,-0.1082682573700002,1.87941975322489
-0.0050975,-0.1066095330367844,1.879750637972379
-0.005096249999999999,-0.1056142984368551,1.881074176962333
-0.005095,-0.1056142984368551,1.880412407467356
-0.005093749999999999,-0.1039555741036394,1.882397715952287
-0.0050925,-0.1036238292369965,1.883059485447264
-0.005091249999999999,-0.1029603395037103,1.884713909184706
-0.00509,-0.1019651049037814,1.886699217669636
-0.00508875,-0.09997463570392236,1.886368332922148
-0.0050875,-0.09931114597063645,1.887691871912101
-0.00508625,-0.09831591137070683,1.888684526154567
-0.005084999999999999,-0.09665718703749072,1.889015410902056
-0.00508375,-0.09533020757091891,1.890669834639498
-0.005082499999999999,-0.0943349729709896,1.891662488881963
-0.00508125,-0.09168101403784476,1.895302221104336
-0.005079999999999999,-0.08869531023805684,1.897618414336755
-0.00507875,-0.08770007563812798,1.900265492316662
-0.0050775,-0.08471437183833959,1.90092726181164
-0.00507625,-0.08305564750512481,1.902912570296569
-0.005075,-0.08305564750512406,1.903905224539036
-0.005073749999999999,-0.08206041290519386,1.90522876352899
-0.0050725,-0.08006994370533614,1.906883187266432
-0.005071249999999999,-0.07940645397204993,1.907544956761409
-0.00507,-0.07907470910540683,1.907875841508897
-0.005068749999999999,-0.07807947450547752,1.908537611003874
-0.0050675,-0.0767524950389057,1.910192034741315
-0.00506625,-0.07509377070568958,1.911846458478758
-0.005064999999999999,-0.07409853610575981,1.912508227973736
-0.00506375,-0.07310330150583096,1.913169997468712
-0.005062499999999999,-0.07310330150583021,1.91383176696369
-0.00506125,-0.07144457717261544,1.916147960196108
-0.005059999999999999,-0.07011759770604303,1.916809729691085
-0.00505875,-0.06879061823947062,1.918464153428527
-0.005057499999999999,-0.06812712850618441,1.919125922923504
-0.00505625,-0.06680014903961259,1.919787692418481
-0.005055,-0.06646840417296888,1.920449461913458
-0.005053749999999999,-0.06480967983975232,1.922103885650901
-0.0050525,-0.06248746577325165,1.923758309388343
-0.005051249999999999,-0.06182397603996438,1.925412733125786
-0.00505,-0.05950176197346371,1.927398041610715
-0.005048749999999999,-0.06016525170674991,1.927398041610715
-0.0050475,-0.0581747825068922,1.929052465348157
-0.00504625,-0.05485733384046027,1.932030428075554
-0.005045,-0.05120814030738777,1.935670160297925
-0.00504375,-0.04888592624088439,1.936662814540392
-0.005042499999999999,-0.04689545704102547,1.940633431510254
-0.00504125,-0.04623196730773957,1.94129520100523
-0.005039999999999999,-0.04722720190766888,1.940964316257742
-0.00503875,-0.04490498784116716,1.942287855247695
-0.005037499999999999,-0.04258277377466543,1.944934933227603
-0.00503625,-0.04026055970816475,1.94758201120751
-0.005035,-0.04158753917473612,1.947251126460022
-0.00503375,-0.0402605597081643,1.946589356965046
-0.0050325,-0.0392653251082344,1.948243780702487
-0.005031249999999999,-0.03594787644180366,1.950890858682395
-0.00503,-0.03661136617508956,1.951221743429884
-0.005028749999999999,-0.03428915210858784,1.952876167167326
-0.0050275,-0.03362566237530162,1.953537936662303
-0.005026249999999999,-0.03229868290872921,1.955523245147233
-0.005025,-0.03163519317544331,1.955523245147233
-0.00502375,-0.0309717034421568,1.957839438379652
-0.005022499999999999,-0.02831774450901152,1.95850120787463
-0.00502125,-0.02732250990908266,1.96048651635956
-0.005019999999999999,-0.02699076504243865,1.960817401107049
-0.00501875,-0.02500029584258093,1.962802709591979
-0.005017499999999999,-0.02400506124265163,1.963795363834445
-0.00501625,-0.02334157150936542,1.964457133329421
-0.005014999999999999,-0.02002412284293438,1.968758635046771
-0.00501375,-0.01770190877643371,1.971074828279189
-0.0050125,-0.01604318444321714,1.973721906259098
-0.005011249999999999,-0.01372097037671436,1.974383675754076
-0.00501,-0.01139875631021369,1.977692523228959
-0.005008749999999999,-0.009408287110354916,1.97967783171389
-0.0050075,-0.009076542243711962,1.979346946966402
-0.005006249999999999,-0.007086073043853341,1.981663140198821
-0.005005,-0.007086073043853341,1.982655794441286
-0.00500375,-0.00609083844392403,1.983648448683751
-0.0050025,-0.004763858977352219,1.984641102926216
-0.00500125,-0.004100369244065409,1.986295526663659
-0.004999999999999999,-0.002773389777491938,1.987288180906125
-0.00499875,-0.0004511757109912688,1.98828083514859
-0.004997499999999999,-0.0001194308443481652,1.98828083514859
-0.00499625,0.0008758037555811456,1.99026614363352
-0.004994999999999999,0.002534528088796663,1.991920567370963
-0.00499375,0.003861507555368474,1.993244106360916
-0.0049925,0.004193252422012182,1.993905875855893
-0.00499125,0.005851976755226945,1.9965529538358
-0.00499,0.008505935688372528,1.998207377573243
-0.004988749999999999,0.008174190821729878,1.997876492825756
-0.0049875,0.009169425421658736,1.999861801310685
-0.004986249999999999,0.01115989462151736,2.001185340300639
-0.004985,0.01315036382137598,2.002839764038081
-0.004983749999999999,0.01315036382137598,2.00317064878557
-0.0049825,0.0158043227545196,2.006148611512964
-0.00498125,0.01812653682102253,2.008133919997896
-0.004979999999999999,0.02111224062081122,2.012104536967759
-0.00497875,0.02277096495402598,2.014420730200177
-0.004977499999999999,0.02509317902052922,2.017398692927574
-0.00497625,0.02841062768695874,2.019053116665015
-0.004974999999999999,0.02841062768695874,2.019053116665015
-0.00497375,0.02874237255360185,2.020707540402457
-0.004972499999999999,0.02973760715353116,2.020707540402457
-0.00497125,0.03139633148674592,2.023685503129852
-0.00497,0.0330550558199622,2.02434727262483
-0.004968749999999999,0.03338680068660559,2.024347272624831
-0.0049675,0.03405029041989151,2.025339926867296
-0.004966249999999999,0.03504552501982158,2.026332581109762
-0.004965,0.03670424935303633,2.028317889594692
-0.004963749999999999,0.03736773908632254,2.030303198079622
-0.0049625,0.03869471855289495,2.031295852322088
-0.00496125,0.03968995315282427,2.031295852322088
-0.00496,0.04068518775275313,2.033281160807018
-0.00495875,0.04234391208596909,2.035266469291949
-0.004957499999999999,0.04499787101911408,2.036920893029391
-0.00495625,0.04532961588575703,2.036590008281903
-0.004954999999999999,0.04798357481890186,2.041222394746741
-0.00495375,0.04665659535232944,2.041553279494229
-0.004952499999999999,0.04897880941883116,2.041884164241718
-0.00495125,0.05130102348533185,2.044531242221624
-0.00495,0.05428672728512082,2.04784008969651
-0.00494875,0.05694068621826445,2.050156282928928
-0.0049475,0.05893115541812427,2.052803360908837
-0.004946249999999999,0.06125336948462661,2.055781323636233
-0.004945,0.06258034895119842,2.056112208383721
-0.004943749999999999,0.06224860408455531,2.05644309313121
-0.0049425,0.06523430788434324,2.05842840161614
-0.004941249999999999,0.06589779761762946,2.059421055858606
-0.00494,0.06556605275098649,2.060744594848559
-0.00493875,0.06755652195084497,2.061406364343537
-0.0049375,0.06755652195084497,2.061406364343537
-0.00493625,0.06954699115070359,2.064384327070933
-0.004934999999999999,0.0712057154839191,2.065376981313398
-0.00493375,0.0712057154839191,2.066038750808374
-0.004932499999999999,0.07220095008384841,2.06703140505084
-0.00493125,0.07253269495049153,2.068024059293305
-0.004929999999999999,0.07419141928370704,2.06901671353577
-0.00492875,0.07651363335020771,2.0710020220207
-0.0049275,0.07717712308349498,2.071994676263166
-0.004926249999999999,0.07784061281678163,2.07364910000061
-0.004925,0.07883584741671049,2.07563440848554
-0.004923749999999999,0.08016282688328305,2.075303523738052
-0.0049225,0.08049457174992601,2.077288832222982
-0.004921249999999999,0.08248504094978464,2.079274140707912
-0.00492,0.08547074474957256,2.081259449192843
-0.00491875,0.0881247036827174,2.083244757677774
-0.0049175,0.08845644854936034,2.085230066162703
-0.00491625,0.09177389721579153,2.087215374647635
-0.004914999999999999,0.09144215234914964,2.088208028890101
-0.00491375,0.09409611128229325,2.09052422212252
-0.004912499999999999,0.09475960101557993,2.09250953060745
-0.00491125,0.09575483561550878,2.09250953060745
-0.004909999999999999,0.09608658048215188,2.093171300102427
-0.00490875,0.09641832534879483,2.093833069597403
-0.0049075,0.0984087945486536,2.095818378082335
-0.00490625,0.09741355994872475,2.096149262829823
-0.004905,0.09940402914858291,2.097141917072288
-0.004903749999999999,0.1007310086151558,2.099127225557219
-0.0049025,0.1017262432150846,2.099127225557219
-0.004901249999999999,0.1030532226816571,2.10111253404215
-0.0049,0.1033849675483002,2.101774303537127
-0.004898749999999999,0.1043802021482295,2.102766957779592
-0.0048975,0.1053754367481583,2.104421381517033
-0.00489625,0.1080293956813036,2.1054140357595
-0.004895,0.1083611405479466,2.107399344244429
-0.00489375,0.1113468443477346,2.10971553747685
-0.004892499999999999,0.1120103340810219,2.111700845961781
-0.00489125,0.1143325481475226,2.114347923941688
-0.004889999999999999,0.1179817416805967,2.116995001921596
-0.00488875,0.1196404660138122,2.118980310406526
-0.004887499999999999,0.1196404660138122,2.119311195154014
-0.00488625,0.1196404660138122,2.119972964648991
-0.004885,0.1203039557470984,2.121627388386434
-0.004883749999999999,0.1212991903470284,2.121627388386435
-0.0048825,0.1226261698136002,2.123612696871364
-0.004881249999999999,0.1242848941468157,2.125598005356295
-0.00488,0.1242848941468157,2.125598005356295
-0.004878749999999999,0.1249483838801019,2.125928890103784
-0.0048775,0.1256118736133881,2.126259774851272
-0.00487625,0.1262753633466743,2.126921544346249
-0.004875,0.1272705979466032,2.127252429093737
-0.00487375,0.1272705979466036,2.129237737578668
-0.004872499999999999,0.1285975774131765,2.130561276568622
-0.00487125,0.1295928120131054,2.131553930811087
-0.004869999999999999,0.1295928120131064,2.1312230460636
-0.00486875,0.1319150260796071,2.134201008790995
-0.004867499999999999,0.131583281212964,2.134862778285972
-0.00486625,0.1319150260796069,2.133870124043507
-0.004865,0.1339054952794657,2.135855432528437
-0.00486375,0.1339054952794657,2.137509856265878
-0.0048625,0.1355642196126812,2.137509856265879
-0.004861249999999999,0.1392134131457557,2.14181135798323
-0.00486,0.1398769028790416,2.143465781720671
-0.004858749999999999,0.1408721374789709,2.145451090205602
-0.0048575,0.1461800553452605,2.148429052932998
-0.004856249999999999,0.144521331012045,2.149421707175463
-0.004855,0.1471752899451886,2.15008347667044
-0.00485375,0.1475070348118329,2.150745246165417
-0.0048525,0.146843545078547,2.151076130912905
-0.00485125,0.147838779678476,2.152068785155371
-0.004849999999999999,0.1481705245451188,2.152730554650347
-0.00484875,0.1475070348118329,2.152068785155371
-0.004847499999999999,0.1491657591450485,2.154054093640301
-0.00484625,0.1494975040116916,2.154715863135278
-0.004844999999999999,0.150824483478264,2.155708517377743
-0.00484375,0.1514879732115499,2.15637028687272
-0.0048425,0.1504927386116209,2.155708517377743
-0.004841249999999999,0.149829248878336,2.155377632630257
-0.00484,0.1528149526781226,2.15868648010514
-0.004838749999999999,0.1531466975447658,2.159679134347605
-0.0048375,0.1534784424114088,2.160010019095093
-0.004836249999999999,0.1544736770113381,2.160340903842582
-0.004835,0.154141932144695,2.160340903842582
-0.00483375,0.1564641462111967,2.162657097075001
-0.0048325,0.1567958910778397,2.163649751317466
-0.00483125,0.1567958910778398,2.162987981822489
-0.004829999999999999,0.1564641462111976,2.165304175054909
-0.00482875,0.1584546154110553,2.165635059802397
-0.004827499999999999,0.1607768294775583,2.168282137782306
-0.00482625,0.1634307884107019,2.170267446267235
-0.004824999999999999,0.163762533277345,2.171260100509701
-0.00482375,0.1647577678772739,2.172583639499654
-0.0048225,0.1657530024772036,2.174568947984585
-0.00482125,0.1654212576105607,2.173245408994632
-0.00482,0.1660847473438467,2.174899832732073
-0.004818749999999999,0.1660847473438467,2.175561602227051
-0.0048175,0.1660847473438467,2.175230717479562
-0.004816249999999999,0.167079981943776,2.175892486974539
-0.004815,0.1680752165437054,2.176223371722027
-0.004813749999999999,0.1680752165437054,2.175230717479562
-0.0048125,0.1684069614103483,2.177877795459468
-0.00481125,0.1680752165437054,2.177877795459469
-0.00481,0.1680752165437054,2.176885141217005
-0.00480875,0.1697339408769209,2.1798631039444
-0.004807499999999999,0.1694021960102782,2.179201334449424
-0.00480625,0.1703974306102071,2.180524873439377
-0.004804999999999999,0.1697339408769209,2.180524873439377
-0.00480375,0.1694021960102778,2.180855758186866
-0.004802499999999999,0.1703974306102071,2.180855758186866
-0.00480125,0.171392665210136,2.181186642934354
-0.0048,0.1707291754768502,2.180855758186866
-0.004798749999999999,0.1727196446767092,2.182510181924309
-0.0047975,0.1737148792766381,2.185488144651704
-0.004796249999999999,0.1753736036098547,2.186149914146682
-0.004795,0.1776958176763554,2.188796992126588
-0.004793749999999999,0.1790227971429278,2.190120531116542
-0.0047925,0.1793545420095709,2.190782300611519
-0.00479125,0.1810132663427864,2.192436724348961
-0.00479,0.1800180317428575,2.192436724348961
-0.00478875,0.1806815214761433,2.193760263338915
-0.004787499999999999,0.1806815214761432,2.194091148086403
-0.00478625,0.1803497766095002,2.193429378591427
-0.004784999999999999,0.1810132663427861,2.193098493843938
-0.00478375,0.1803497766095002,2.192105839601473
-0.004782499999999999,0.1793545420095709,2.192436724348961
-0.00478125,0.1806815214761427,2.194422032833891
-0.00478,0.1813450112094295,2.194091148086403
-0.00477875,0.1800180317428577,2.193429378591427
-0.0047775,0.1806815214761433,2.194091148086403
-0.004776249999999999,0.179686286876214,2.193098493843938
-0.004775,0.179686286876214,2.193429378591427
-0.004773749999999999,0.1803497766095002,2.194091148086403
-0.0047725,0.1803497766095002,2.19475291758138
-0.004771249999999999,0.1800180317428571,2.194422032833892
-0.00477,0.1813450112094289,2.196407341318822
-0.00476875,0.1823402458093588,2.197730880308777
-0.0047675,0.1839989701425736,2.198061765056265
-0.00476625,0.1859894393424329,2.200047073541195
-0.004764999999999999,0.1863211842090762,2.201370612531149
-0.00476375,0.1866529290757192,2.201039727783661
-0.004762499999999999,0.1859894393424329,2.201701497278638
-0.00476125,0.1849942047425036,2.200377958288684
-0.004759999999999999,0.1853259496091468,2.201039727783661
-0.00475875,0.1846624598758609,2.200708843036173
-0.0047575,0.1839989701425743,2.199385304046219
-0.004756249999999999,0.1843307150092173,2.201370612531148
-0.004755,0.1839989701425743,2.199716188793707
-0.004753749999999999,0.1826719906760025,2.198723534551243
-0.0047525,0.1839989701425743,2.201370612531149
-0.004751249999999999,0.1836672252759312,2.200047073541195
-0.00475,0.1836672252759312,2.199716188793707
-0.004748749999999999,0.1816767560760726,2.19905441929873
-0.0047475,0.1816767560760726,2.198061765056265
-0.00474625,0.1833354804092881,2.200047073541195
-0.004744999999999999,0.18565769447579,2.203686805763569
-0.00474375,0.1859894393424329,2.204348575258545
-0.004742499999999999,0.1866529290757192,2.204679460006033
-0.00474125,0.1866529290757192,2.204017690511057
-0.004739999999999999,0.1849942047425036,2.201370612531149
-0.00473875,0.1859894393424325,2.204017690511055
-0.0047375,0.1849942047425036,2.20335592101608
-0.00473625,0.1836672252759319,2.202694151521103
-0.004735,0.1849942047425036,2.20335592101608
-0.004733749999999999,0.1849942047425027,2.202694151521102
-0.0047325,0.183003735542645,2.201701497278638
-0.004731249999999999,0.1833354804092881,2.202363266773615
-0.00473,0.1820085009427157,2.201039727783661
-0.004728749999999999,0.1810132663427864,2.201701497278638
-0.0047275,0.1830037355426441,2.201039727783661
-0.00472625,0.183003735542645,2.201701497278638
-0.004725,0.1826719906760021,2.203355921016079
-0.00472375,0.1846624598758606,2.203025036268591
-0.004722499999999999,0.1843307150092176,2.204679460006034
-0.00472125,0.1846624598758606,2.205341229501011
-0.004719999999999999,0.1839989701425743,2.204679460006034
-0.00471875,0.1820085009427157,2.202694151521103
-0.004717499999999999,0.1820085009427157,2.202694151521103
-0.00471625,0.1830037355426446,2.203025036268591
-0.004715,0.1816767560760726,2.202032382026126
-0.004713749999999999,0.1816767560760722,2.202032382026125
-0.0047125,0.1806815214761433,2.200047073541195
-0.004711249999999999,0.1783593074096416,2.200047073541195
-0.00471,0.1783593074096416,2.199385304046219
-0.004708749999999999,0.1770323279430692,2.19905441929873
-0.0047075,0.1780275625429985,2.19905441929873
-0.004706249999999999,0.1780275625429985,2.19905441929873
-0.004705,0.1763688382097837,2.197399995561289
-0.00470375,0.1760370933431399,2.197730880308777
-0.004702499999999999,0.1753736036098535,2.196407341318822
-0.00470125,0.1750418587432105,2.195745571823846
-0.004699999999999999,0.1767005830764261,2.19905441929873
-0.00469875,0.1767005830764261,2.19905441929873
-0.004697499999999999,0.1760370933431399,2.198392649803753
-0.00469625,0.1783593074096405,2.199716188793706
-0.004695,0.1776958176763554,2.199385304046219
-0.00469375,0.1757053484764977,2.198723534551242
-0.0046925,0.1757053484764967,2.200047073541195
-0.004691249999999999,0.1760370933431388,2.198061765056264
-0.00469,0.1737148792766381,2.196738226066311
-0.004688749999999999,0.1730513895433519,2.195083802328869
-0.0046875,0.1717244100767795,2.194091148086403
-0.004686249999999999,0.1707291754768502,2.193760263338915
-0.004685,0.1707291754768502,2.194091148086403
-0.00468375,0.1694021960102778,2.192105839601473
-0.0046825,0.1697339408769207,2.192436724348961
-0.00468125,0.1684069614103485,2.192105839601473
-0.004679999999999999,0.1674117268104192,2.191113185359007
-0.00467875,0.1674117268104192,2.190120531116542
-0.004677499999999999,0.1654212576105605,2.189458761621565
-0.00467625,0.1664164922104898,2.190451415864031
-0.004674999999999999,0.1667482370771329,2.190451415864031
-0.00467375,0.1687387062769906,2.191113185359007
-0.0046725,0.1664164922104898,2.191113185359007
-0.004671249999999999,0.1694021960102761,2.19243672434896
-0.00467,0.1657530024772036,2.190451415864031
-0.004668749999999999,0.1647577678772739,2.189127876874076
-0.0046675,0.163762533277345,2.187142568389146
-0.004666249999999999,0.1627672986774157,2.187142568389146
-0.004665,0.1627672986774157,2.186811683641658
-0.004663749999999999,0.1621038089441295,2.185819029399192
-0.0046625,0.1594498500109859,2.183833720914262
