data/oldScopeData/2V scope.csv

#Digilent WaveForms Oscilloscope Acquisition
#Device Name: Discovery2
#Serial Number: SN:210321B81678
#Date Time: 2025-08-30 13:10:44.561
#Sample rate: 800000Hz
#Samples: 8192
#Trigger: Source: Channel 1 Type: Edge Condition: Rising Level: 0 V Hyst.: Auto HoldOff: 0 s
#Channel 1: Range: 500 mV/div Offset: 0 V Sample Mode: Average
#Channel 2: Range: 500 mV/div Offset: -2 V Sample Mode: Average
#Wavegen Channel 1: Running
#Mode: Simple
#Type: Sine
#Frequency: 1 kHz
#Period: 1 ms
#Amplitude: 2 V
#Offset: 0 V
#Symmetry: 50 %
#Phase: 0 °
#Power Supplies: ON
#Positive Supply: ON
#Voltage: 5 V
#Negative Supply: ON
#Voltage: -2 V

#2,4kHz
#raw
#
Time (s),Channel 1 (V),Channel 2 (V)
-0.005118924418604651,-1.217291346557895,0.5932707397372985
-0.005117674418604651,-1.207339000558602,0.6031972821619518
-0.005116424418604651,-1.195727930226089,0.615440017819029
-0.005115174418604651,-1.186439073960087,0.6253665602436778
-0.005113924418604651,-1.175823238227507,0.6352931026683313
-0.005112674418604651,-1.165207402494928,0.6472049535779152
-0.005111424418604651,-1.156582035962207,0.6571314960025687
-0.005110174418604651,-1.143975731029775,0.6683815774171709
-0.005108924418604651,-1.134023385030476,0.6789698893368061
-0.00510767441860465,-1.123739294164535,0.68988908600393
-0.005106424418604651,-1.113123458431961,0.7011391674185321
-0.005105174418604651,-1.101180643232805,0.7130510183281205
-0.005103924418604651,-1.091560042100159,0.7223157912577927
-0.005102674418604651,-1.081607696100866,0.7338967574198882
-0.005101424418604651,-1.069996625768357,0.7458086083294724
-0.005100174418604651,-1.057722065702563,0.7580513439865448
-0.005098924418604651,-1.047437974836631,0.769301425401147
-0.005097674418604651,-1.036490394237404,0.7815441610582246
-0.005096424418604651,-1.025874558504819,0.7911398187353947
-0.005095174418604651,-1.014263488172316,0.8027207848974851
-0.005093924418604651,-1.00132543837323,0.8159561747970292
-0.005092674418604651,-0.9897143680407262,0.8295224494440494
-0.005091424418604651,-0.9781032977082176,0.8397798766161912
-0.005090174418604651,-0.9671557171090002,0.8520226122732582
-0.005088924418604651,-0.9548811570432003,0.8652580021728016
-0.005087674418604651,-0.9445970661772688,0.8765080835874037
-0.005086424418604651,-0.931659016378183,0.8877581650020161
-0.005085174418604651,-0.9190527114457397,0.9009935549015599
-0.005083924418604651,-0.9071098962465934,0.9138980600536033
-0.005082674418604651,-0.8978210399805865,0.924817256720722
-0.005081424418604651,-0.8852147350481486,0.937390877125283
-0.005080174418604651,-0.8712814506491382,0.9509571517723092
-0.005078924418604651,-0.8603338700499208,0.9625381179343998
-0.005077674418604651,-0.8457370959176193,0.9777588163188735
-0.005076424418604651,-0.8344577704517588,0.9900015519759404
-0.005075174418604651,-0.822514955252602,1.000920748643065
-0.005073924418604651,-0.8095769054535152,1.013825253795121
-0.005072674418604651,-0.796970600521083,1.028384182684606
-0.005071424418604651,-0.7843642955886451,1.040957803089167
-0.005070174418604651,-0.7720897355228503,1.054854962483682
-0.005068924418604651,-0.7588199408571261,1.067428582888243
-0.005067674418604651,-0.7475406153912657,1.079009549050333
-0.005066424418604651,-0.7339390758588934,1.092906708444853
-0.00506517441860465,-0.720669281193163,1.106803867839374
-0.005063924418604651,-0.707067741660802,1.120370142486394
-0.005062674418604651,-0.6964519059282162,1.132281993395985
-0.005061424418604651,-0.6821868766625692,1.147502691780447
-0.005060174418604651,-0.6695805717301313,1.160738081679984
-0.005058924418604651,-0.6569742667976933,1.172980817337057
-0.005057674418604651,-0.6423774926653968,1.18720886147906
-0.005056424418604651,-0.6284442082663927,1.201767790368545
-0.005055174418604651,-0.6171648828005208,1.214341410773113
-0.005053924418604651,-0.6025681086682181,1.229892993905076
-0.005052674418604651,-0.5889665691358571,1.244121038047073
-0.005051424418604651,-0.5773554988033421,1.255371119461688
-0.005050174418604651,-0.5634222144043382,1.271253587341126
-0.005048924418604651,-0.5488254402720415,1.285812516230617
-0.005047674418604651,-0.5365508802062523,1.298717021382661
-0.005046424418604651,-0.5236128304071657,1.311621526534716
-0.005045174418604651,-0.5080208216749469,1.328165763909131
-0.005043924418604651,-0.4947510270092156,1.340408499566211
-0.005042674418604651,-0.4818129772101281,1.355629197950686
-0.005041424418604651,-0.4675479479444812,1.37051901158766
-0.005040174418604651,-0.454278153278757,1.384416170982175
-0.005038924418604651,-0.4400131240131036,1.398644215124178
-0.005037674418604651,-0.4260798396140932,1.412872259266181
-0.005036424418604651,-0.413141789815018,1.427100303408178
-0.005035174418604651,-0.4002037400159311,1.44066657805521
-0.005033924418604651,-0.3846117312837123,1.456879930682137
-0.005032674418604651,-0.3693514674181225,1.471107974824148
-0.005031424418604651,-0.3577403970856073,1.484343364723692
-0.005030174418604651,-0.3434753678199604,1.499564063108154
-0.005028924418604651,-0.3302055731542363,1.514122991997646
-0.005027674418604651,-0.3162722887552259,1.529012805634626
-0.005026424418604651,-0.2986898108231414,1.547542351493979
-0.005025174418604651,-0.2840930366908515,1.562432165130952
-0.005023924418604651,-0.2691645176919052,1.577321978767939
-0.00502267441860465,-0.2548994884262438,1.592873561899904
-0.005021424418604651,-0.2373170104941673,1.609748684021807
-0.005020174418604651,-0.2276964093615108,1.622653189173862
-0.005018924418604651,-0.2134313800958638,1.636550348568371
-0.005017674418604651,-0.1971758816303517,1.653094585942793
-0.005016424418604651,-0.1849013215645569,1.666660860589819
-0.005015174418604651,-0.1706362922989034,1.680558019984334
-0.005013924418604651,-0.1563712630332565,1.695778718368796
-0.005012674418604651,-0.1407792543010241,1.712322955743225
-0.005011424418604651,-0.1268459699020074,1.725889230390259
-0.005010174418604651,-0.1129126855030034,1.741771698269697
-0.005008924418604651,-0.09964289083727368,1.755999742411706
-0.005007674418604651,-0.08736833077148441,1.769566017058726
-0.005006424418604651,-0.07277155663918786,1.78379406120073
-0.005005174418604651,-0.0581747825068913,1.799676529080175
-0.005003924418604651,-0.04357800837459473,1.81357368847469
-0.005002674418604651,-0.03097170344216253,1.82912527160664
-0.005001424418604651,-0.01438446011000162,1.845338624233581
-0.005000174418604651,-0.001446410310914244,1.85956666837559
-0.004998924418604651,0.01248687408808977,1.874456482012564
-0.004997674418604651,0.02841062768695874,1.891000719386986
-0.004996424418604651,0.04168042235268289,1.903905224539036
-0.004995174418604651,0.05660894135162255,1.919456807670993
-0.004993924418604651,0.07186920521719838,1.936993699287872
-0.004992674418604651,0.08712946908278808,1.953207051914814
-0.004991424418604651,0.1013944983484351,1.967435096056811
-0.004990174418604651,0.1173182519473105,1.985633757168682
-0.004988924418604651,0.13158328121297,1.999861801310692
-0.004987674418604651,0.1448530758786881,2.014751614947665
-0.004986424418604651,0.1597815948776278,2.030634082827111
-0.004985174418604651,0.173383134409995,2.044862126969114
-0.004983924418604651,0.1859894393424329,2.059090171111117
-0.004982674418604651,0.2009179583413658,2.073649100000602
-0.004981424418604651,0.214851242740383,2.089531567880054
-0.00498017441860465,0.2291162720060428,2.103759612022065
-0.004978924418604651,0.2430495564050468,2.118980310406526
-0.004977674418604651,0.2573145856707063,2.134531893538489
-0.004976424418604651,0.2705843803364244,2.148429052932998
-0.004975174418604651,0.2851811544687209,2.163980636064955
-0.004973924418604651,0.2994461837343744,2.178870449701935
-0.004972674418604651,0.3130477232667416,2.194091148086403
-0.004971424418604651,0.3279762422656745,2.209311846470865
-0.004970174418604651,0.3438999958645503,2.22684873808776
-0.004968924418604651,0.3571697905302815,2.241738551724747
-0.004967674418604651,0.3727617992625003,2.256959250109208
-0.004966424418604651,0.3886855528613759,2.274827026473591
-0.004965174418604651,0.4032823269936658,2.289055070615587
-0.004963924418604651,0.4162203767927469,2.303283114757591
-0.004962674418604651,0.4288266817251848,2.318172928394571
-0.004961424418604651,0.4437552007241244,2.334386281021505
-0.004960174418604651,0.4556980159232707,2.346298131931084
-0.004958924418604651,0.4696313003222866,2.361518830315557
-0.004957674418604651,0.4838963295879453,2.376408643952543
-0.004956424418604651,0.4955073999204486,2.388982264357098
-0.004955174418604651,0.5087771945861728,2.403872077994079
-0.004953924418604651,0.5250326930516849,2.420416315368501
-0.004952674418604651,0.5366437633841935,2.433982590015527
-0.004951424418604651,0.5502453029165545,2.448872403652501
-0.004950174418604651,0.563846842448928,2.462107793552045
-0.004948924418604651,0.5771166371146461,2.476997607189019
-0.004947674418604651,0.5910499215136624,2.491556536078517
-0.004946424418604651,0.6059784405126087,2.509755197190388
-0.004945174418604651,0.6205752146448987,2.524645010827362
-0.004943924418604651,0.6338450093106228,2.538211285474388
-0.004942674418604651,0.6484417834429194,2.554424638101322
-0.004941424418604651,0.6623750678419298,2.570307105980767
-0.004940174418604651,0.6736543933077902,2.582218956890346
-0.004938924418604651,0.6882511674400918,2.598432309517285
-0.004937674418604651,0.7028479415723817,2.613322123154259
-0.004936424418604651,0.7147907567715401,2.625564858811338
-0.004935174418604651,0.7254065925041261,2.638800248710882
-0.004933924418604651,0.740003366636416,2.653028292852879
-0.004932674418604651,0.7506192023689953,2.666263682752417
-0.004931424418604651,0.7648842316346488,2.681153496389397
-0.004930174418604651,0.7788175160336591,2.696374194773866
-0.004928924418604651,0.7907603312328054,2.710602238915862
-0.004927674418604651,0.8023714015653195,2.721521435582988
-0.004926424418604651,0.8156411962310506,2.73740390346244
-0.004925174418604651,0.8309014600966264,2.753286371341878
-0.004923924418604651,0.8435077650290707,2.767845300231377
-0.004922674418604651,0.8574410494280746,2.782073344373373
-0.004921424418604651,0.8717060786937281,2.798286697000307
-0.004920174418604651,0.8829854041595936,2.811522086899845
-0.004918924418604651,0.8965869436919609,2.824757476799383
-0.004917674418604651,0.9091932486243931,2.838323751446403
-0.004916424418604651,0.9194773394903351,2.850235602355993
-0.004915174418604651,0.931088409822849,2.863801877003026
-0.004913924418604651,0.9426994801553523,2.877368151650046
-0.004912674418604651,0.9539788056212241,2.889610887307124
-0.004911424418604651,0.967580345153585,2.903177161954145
-0.004910174418604651,0.9788596706194506,2.916081667106194
-0.004908924418604651,0.9911342306852399,2.928324402763261
-0.004907674418604651,1.001750066417825,2.941559792662805
-0.004906424418604651,1.015351605950186,2.956449606299778
-0.004905174418604651,1.026630931416058,2.969354111451834
-0.004903924418604651,1.039237236348501,2.98225861660389
-0.004902674418604651,1.052507031014219,2.998141084483329
-0.004901424418604651,1.063786356480085,3.011707359130355
-0.004900174418604651,1.076392661412523,3.024942749029893
-0.004898924418604651,1.087340242011746,3.037185484686965
-0.004897674418604651,1.098287822610963,3.049428220344032
-0.004896424418604651,1.109567148076833,3.061009186506134
-0.004895174418604651,1.121178218409337,3.073913691658178
-0.004893924418604651,1.132789288741851,3.087149081557721
-0.004892674418604651,1.141414655274576,3.096744739234892
-0.004891424418604651,1.152362235873794,3.109318359639447
-0.004890174418604651,1.163641561339659,3.121891980044008
-0.004888924418604651,1.173262162472309,3.133472946206104
-0.004887674418604651,1.182882763604959,3.145715681863176
-0.004886424418604651,1.196816048003963,3.159281956510196
-0.004885174418604651,1.207431883736549,3.17251734640974
-0.00488392441860465,1.21871120920242,3.18442919731933
-0.004882674418604651,1.230654024401566,3.197333702471374
-0.004881424418604651,1.241933349867437,3.210238207623429
-0.004880174418604651,1.253876165066584,3.222150058533007
-0.004878924418604651,1.264492000799163,3.235716333180034
-0.004877674418604651,1.274776091665099,3.247297299342129
-0.004876424418604651,1.282737968464533,3.255900302776829
-0.004875174418604651,1.292026824730536,3.267481268938919
-0.004873924418604651,1.300983936129904,3.27906223510102
-0.004872674418604651,1.311599771862487,3.289319662273166
-0.004871424418604651,1.320556883261847,3.299246204697815
-0.004870174418604651,1.330177484394501,3.311158055607403
-0.004868924418604651,1.337807616327289,3.320091943789587
-0.004867674418604651,1.347759962326582,3.33233467944666
-0.004866424418604651,1.357380563459227,3.341599452376332
-0.004865174418604651,1.366005929991952,3.352518649043455
-0.004863924418604651,1.377948745191099,3.364099615205546
-0.004862674418604651,1.387901091190397,3.3770041203576
-0.004861424418604651,1.396526457723122,3.387592432277236
-0.004860174418604651,1.404820079389196,3.398842513691838
-0.004858924418604651,1.416762894588347,3.410092595106445
-0.004857674418604651,1.425720005987711,3.421011791773564
-0.004856424418604651,1.435008862253718,3.431269218945705
-0.004855174418604651,1.445624697986293,3.442850185107796
-0.004853924418604651,1.453586574785732,3.454100266522408
-0.004852674418604651,1.459889727251948,3.461379730967151
-0.004851424418604651,1.469510328384601,3.472298927634273
-0.004850174418604651,1.477803950050681,3.481894585311441
-0.004848924418604651,1.484107102516897,3.489174049756183
-0.004847674418604651,1.491405489583046,3.49843882268586
-0.004846424418604651,1.500030856115766,3.507703595615537
-0.004845174418604651,1.505670518848699,3.516306599050236
-0.004843924418604651,1.513300650781487,3.52524048723242
-0.004842674418604651,1.520267292980996,3.534174375414612
-0.00484142441860465,1.528560914647077,3.544431802586758
-0.004840174418604651,1.536191046579865,3.553034806021454
-0.004838924418604651,1.544484668245946,3.562630463698623
-0.004837674418604651,1.55277828991202,3.571564351880807
-0.004836424418604651,1.561071911578097,3.581821779052949
-0.004835174418604651,1.568702043510889,3.591417436730114
-0.004833924418604651,1.577990899776896,3.602005748649744
-0.004832674418604651,1.583962307376469,3.609616097841974
-0.004831424418604651,1.591592439309263,3.619542640266632
-0.004830174418604651,1.597232102042198,3.626160335216404
-0.004828924418604651,1.602871764775128,3.633770684408635
-0.004827674418604651,1.610501896707922,3.641381033600872
-0.004826424418604651,1.614482835107637,3.648660498045615
-0.004825174418604651,1.620785987573856,3.655278192995384
-0.004823924418604651,1.625098670840214,3.661565003197662
-0.004822674418604651,1.630406588706506,3.669506237137387
-0.004821424418604651,1.637041486039365,3.67678570158213
-0.004820174418604651,1.643012893638944,3.684396050774367
-0.004818924418604651,1.650643025571738,3.69299905420907
-0.004817674418604651,1.655950943438025,3.699947633906324
-0.004816424418604651,1.661922351037601,3.708550637341024
-0.004815174418604651,1.668557248370463,3.71583010178577
-0.004813924418604651,1.67353342137011,3.722778681483027
-0.004812674418604651,1.678841339236397,3.731050800170235
-0.004811424418604651,1.686471471169191,3.738661149362472
-0.004810174418604651,1.692442878768764,3.745609729059727
-0.004808924418604651,1.69708730690177,3.752558308756987
-0.004807674418604651,1.703058714501348,3.760499542696712
-0.004806424418604651,1.707371397767706,3.765793698656525
-0.004805174418604651,1.711684081034067,3.771749624111317
-0.004803924418604651,1.715333274567141,3.777043780071132
-0.004802674418604651,1.717987233500285,3.781676166535971
-0.004801424418604651,1.721636427033358,3.785977668253318
-0.004800174418604651,1.72594911029972,3.791933593708112
-0.00479892441860465,1.730261793566081,3.797889519162907
-0.004797674418604651,1.732915752499225,3.802521905627743
-0.004796424418604651,1.735569711432372,3.80583075310263
-0.004795174418604651,1.740545884432017,3.812779332799884
-0.004793924418604651,1.744858567698377,3.817742604012211
-0.004792674418604651,1.748839506098094,3.82436029896198
-0.004791424418604651,1.752488699631168,3.828992685426818
-0.004790174418604651,1.75713312776417,3.834948610881608
-0.004788924418604651,1.761114066163889,3.840573651588914
-0.004787674418604651,1.764763259696964,3.845536922801243
-0.004786424418604651,1.767748963496751,3.850169309266079
-0.004785174418604651,1.772393391629756,3.855794349973385
-0.004783924418604651,1.775710840296185,3.861750275428175
-0.004782674418604651,1.778696544095973,3.865390007650547
-0.004781424418604651,1.779028288962616,3.866713546640501
-0.004780174418604651,1.780355268429189,3.870353278862874
-0.004778924418604651,1.783009227362333,3.874654780580222
-0.004777674418604651,1.784999696562192,3.878294512802597
-0.004776424418604651,1.784667951695551,3.880941590782506
-0.004775174418604651,1.787653655495337,3.882926899267435
-0.004773924418604651,1.787653655495337,3.884912207752366
-0.004772674418604651,1.791302849028411,3.890206363712181
-0.004771424418604651,1.792961573361627,3.893846095934554
-0.004770174418604651,1.796279022028056,3.897816712904413
-0.004768924418604651,1.798269491227916,3.901787329874277
-0.004767674418604651,1.800259960427774,3.904765292601672
-0.004766424418604651,1.801918684760991,3.908735909571534
-0.004765174418604651,1.803245664227563,3.911052102803954
-0.004763924418604651,1.803909153960849,3.913368296036372
-0.004762674418604651,1.806563112893994,3.916346258763769
-0.004761424418604651,1.80722660262728,3.919324221491165
-0.004760174418604651,1.808885326960496,3.922633068966049
-0.004758924418604651,1.810212306427068,3.924949262198467
-0.004757674418604651,1.809548816693782,3.925611031693445
-0.00475642441860465,1.808885326960496,3.926272801188423
-0.004755174418604651,1.809880561560425,3.927927224925864
-0.004753924418604651,1.808221837227209,3.928258109673352
-0.004752674418604651,1.806894857760637,3.927596340178376
-0.004751424418604651,1.806563112893994,3.928258109673353
-0.004750174418604651,1.804904388560779,3.928919879168329
-0.004748924418604651,1.805567878294065,3.931236072400749
-0.004747674418604651,1.806894857760637,3.93289049613819
-0.004746424418604651,1.805899623160708,3.934875804623121
-0.004745174418604651,1.805567878294064,3.93520668937061
-0.004743924418604651,1.803909153960849,3.935868458865587
-0.004742674418604651,1.805236133427421,3.936861113108053
-0.004741424418604651,1.804240898827492,3.938184652098006
-0.004740174418604651,1.803577409094206,3.937853767350517
-0.004738924418604651,1.803245664227563,3.938515536845494
-0.004737674418604651,1.801586939894348,3.939177306340471
-0.004736424418604651,1.801586939894348,3.939839075835448
-0.004735174418604651,1.798932980961203,3.93950819108796
-0.004733924418604651,1.796610766894701,3.93917730634047
-0.004732674418604651,1.796279022028058,3.937522882603029
-0.004731424418604651,1.790971104161768,3.935537574118098
-0.004730174418604651,1.788648890095266,3.933883150380656
-0.004728924418604651,1.786326676028765,3.931566957148237
-0.004727674418604651,1.783340972228978,3.930243418158283
-0.004726424418604651,1.781018758162475,3.928919879168329
-0.004725174418604651,1.781018758162475,3.930243418158283
-0.004723924418604651,1.778696544095973,3.928588994420841
-0.004722674418604651,1.776706074896113,3.929250763915817
-0.004721424418604651,1.773388626229684,3.927265455430887
-0.004720174418604651,1.771729901896468,3.925280146945957
-0.004718924418604651,1.770071177563253,3.925941916440933
-0.004717674418604651,1.768080708363394,3.924287492703491
-0.004716424418604651,1.764099769963679,3.921640414723585
-0.004715174418604651,1.761114066163889,3.919324221491165
-0.00471392441860465,1.758128362364099,3.918662451996187
-0.004712674418604651,1.75481091369767,3.916346258763769
-0.004711424418604651,1.75182520989788,3.91369918078386
-0.004710174418604651,1.747512526631522,3.910390333308976
-0.004708924418604651,1.741872863898589,3.906750601086603
