data/3 V Scope.csv

#Digilent WaveForms Oscilloscope Acquisition
#Device Name: Discovery2
#Serial Number: SN:210321B81678
#Date Time: 2025-08-30 13:13:26.893
#Sample rate: 800000Hz
#Samples: 8192
#Trigger: Source: Channel 1 Type: Edge Condition: Rising Level: 0 V Hyst.: Auto HoldOff: 0 s
#Channel 1: Range: 1 V/div Offset: 0 V Sample Mode: Average
#Channel 2: Range: 1 V/div Offset: -2 V Sample Mode: Average
#Wavegen Channel 1: Running
#Mode: Simple
#Type: Sine
#Frequency: 1 kHz
#Period: 1 ms
#Amplitude: 3 V
#Offset: 0 V
#Symmetry: 50 %
#Phase: 0 °
#Power Supplies: ON
#Positive Supply: ON
#Voltage: 5 V
#Negative Supply: ON
#Voltage: -2 V

#2,4kHz
#raw
#
Time (s),Channel 1 (V),Channel 2 (V)
-0.00511984375,-1.761041296002906,0.01446290324407662
-0.00511859375,-1.757402090656034,0.02897646713181667
-0.005117343749999999,-1.746484474615412,0.05437520393536507
-0.00511609375,-1.731927653227932,0.0616319858792318
-0.00511484375,-1.735566858574804,0.08340233171084188
-0.00511359375,-1.731927653227932,0.1088010685143868
-0.00511234375,-1.710092421146702,0.1196862414301918
-0.00511109375,-1.702814010452962,0.1305714143459919
-0.00510984375,-1.699174805106087,0.1595985421214769
-0.005108593749999999,-1.684617983718592,0.1704837150372935
-0.00510734375,-1.666421956984242,0.1958824518408269
-0.00510609375,-1.670061162331099,0.1995108428127734
-0.00510484375,-1.637308314209269,0.224909579616307
-0.00510359375,-1.61911228747491,0.2466799254479171
-0.00510234375,-1.61911228747491,0.2539367073917871
-0.00510109375,-1.600916260740552,0.2757070532233969
-0.00509984375,-1.593637850046812,0.3011057900269305
-0.00509859375,-1.571802617965578,0.3156193539146821
-0.005097343749999999,-1.560885001924955,0.3373896997462988
-0.00509609375,-1.542688975190605,0.3519032636340322
-0.00509484375,-1.517214537762498,0.3664168275217853
-0.00509359375,-1.506296921721888,0.3954439552972522
-0.00509234375,-1.48810089498753,0.4063291282130572
-0.00509109375,-1.46626566290631,0.4208426921007907
-0.00508984375,-1.4662656629063,0.4498698198762774
-0.00508859375,-1.44079122547821,0.468011774735944
-0.00508734375,-1.426234404090711,0.4752685566798223
-0.005086093749999999,-1.397120761315735,0.5079240754272473
-0.00508484375,-1.389842350621995,0.5296944212588475
-0.00508359375,-1.371646323887636,0.5405795941746523
-0.00508234375,-1.349811091806406,0.5623499400062624
-0.00508109375,-1.335254270418919,0.5877486768098075
-0.00507984375,-1.309779832990829,0.5950054587536742
-0.00507859375,-1.302501422297074,0.6240325865291576
-0.00507734375,-1.284305395562724,0.6458029323607576
-0.00507609375,-1.262470163481486,0.6639448872204425
-0.005074843749999999,-1.244274136747116,0.6857152330520592
-0.00507359375,-1.218799699319026,0.7002287969397927
-0.00507234375,-1.207882083278411,0.7219991427714025
-0.00507109375,-1.189686056544052,0.7401410976310776
-0.00506984375,-1.175129235156566,0.7655398344346227
-0.00506859375,-1.149654797728475,0.7945669622100896
-0.00506734375,-1.131458770994106,0.8090805260978426
-0.005066093749999999,-1.109623538912865,0.8235940899855942
-0.00506484375,-1.087788306831645,0.8489928267891278
-0.00506359375,-1.073231485444149,0.8598779997049444
-0.00506234375,-1.051396253362929,0.8852767365084779
-0.00506109375,-1.040478637322314,0.9106754733120228
-0.00505984375,-1.004086583853597,0.9251890371997629
-0.00505859375,-0.9895297624661102,0.9433309920594379
-0.00505734375,-0.9676945303848901,0.9687297288629715
-0.00505609375,-0.9567769143442652,0.9905000746945929
-0.005054843749999999,-0.9349416822630219,1.01589881149815
-0.00505359375,-0.9058280394880617,1.041297548301683
-0.00505234375,-0.8876320127536983,1.052182721217498
-0.00505109375,-0.8767143967130883,1.073953067049098
-0.00504984375,-0.8548791646318582,1.099351803852643
-0.00504859375,-0.829404727203768,1.113865367740376
-0.00504734375,-0.8112087004693981,1.142892495515863
-0.00504609375,-0.7893734683881779,1.157406059403597
-0.00504484375,-0.767538236306938,1.182804796207148
-0.005043593749999999,-0.7493422095725729,1.200946751066835
-0.00504234375,-0.7347853881850929,1.226345487870368
-0.00504109375,-0.7056717454101195,1.248115833701978
-0.00503984375,-0.6801973079820177,1.273514570505523
-0.00503859375,-0.6583620759007877,1.291656525365198
-0.00503734375,-0.6474444598601776,1.317055262168732
-0.00503609375,-0.6292484331258142,1.335197217028418
-0.00503484375,-0.596495585003984,1.346082389944219
-0.00503359375,-0.5892171743102258,1.382366299663573
-0.005032343749999999,-0.5601035315352441,1.404136645495195
-0.00503109375,-0.541907504800894,1.429535382298729
-0.00502984375,-0.5237114780665356,1.451305728130339
-0.00502859375,-0.4945978352915623,1.465819292018079
-0.00502734375,-0.4764018085572039,1.491218028821624
-0.00502609375,-0.4472881657822437,1.520245156597091
-0.00502484375,-0.4327313443947438,1.538387111456779
-0.005023593749999999,-0.4181745230072488,1.549272284372597
-0.00502234375,-0.3999784962728987,1.578299412148064
-0.00502109375,-0.3745040588447837,1.610954930895484
-0.00501984375,-0.3453904160698235,1.621840103811284
-0.00501859375,-0.3235551839885935,1.639982058670959
-0.00501734375,-0.3053591572542351,1.672637577418374
-0.00501609375,-0.29444154121362,1.698036314221919
-0.00501484375,-0.2580494877449198,1.712549878109652
-0.00501359375,-0.2398534610105449,1.737948614913204
-0.005012343749999999,-0.2143790235824332,1.756090569772894
-0.00501109375,-0.1925437915012131,1.788746088520294
-0.00500984375,-0.1779869701137132,1.806888043379977
-0.00500859375,-0.148873327338753,1.825029998239644
-0.00500734375,-0.137955711298138,1.850428735043189
-0.00500609375,-0.1124812738700362,1.875827471846734
-0.00500484375,-0.09064604178880618,1.893969426706409
-0.00500359375,-0.05789319366697599,1.922996554481876
-0.00500234375,-0.03969716693260272,1.937510118369629
-0.005001093749999999,-0.02514034554510608,1.973794028088987
-0.00499984375,-0.003305113463885955,1.991935982948654
-0.00499859375,0.02216932396421578,2.010077937808329
-0.00499734375,0.05128296673918919,2.042733456555744
-0.00499609375,0.06220058277980422,2.064503802387355
-0.00499484375,0.08767502020789436,2.082645757247021
-0.00499359375,0.1131494576360077,2.104416103078639
-0.00499234375,0.1240670736766177,2.122558057938306
-0.00499109375,0.1531807164515961,2.15521357668573
-0.004989843749999999,0.1750159485328328,2.184240704461214
-0.00498859375,0.1895727699203129,2.195125877377015
-0.00498734375,0.2186864126952863,2.209639441264755
-0.00498609375,0.233243234082773,2.238666569040235
-0.00498484375,0.255078466164003,2.267693696815715
-0.00498359375,0.2805529035920932,2.289464042647315
-0.00498234375,0.3023881356733348,2.307605997507
-0.004981093749999999,0.3205841624077015,2.336633125282485
-0.00497984375,0.3387801891420516,2.347518298198285
-0.00497859375,0.3678938319170316,2.372917035001843
-0.00497734375,0.3824506533045117,2.40194416277731
-0.00497609375,0.4188427067732285,2.42371450860892
-0.00497484375,0.4297603228138435,2.441856463468595
-0.00497359375,0.4552347602419453,2.46725520027214
-0.00497234375,0.4697915816294254,2.48902554610374
-0.00497109375,0.4879876083637903,2.507167500963425
-0.004969843749999999,0.5171012511387704,2.532566237766976
-0.00496859375,0.5316580725262504,2.54707980165471
-0.00496734375,0.5534933046074888,2.579735320402135
-0.00496609375,0.5716893313418389,2.601505666233735
-0.00496484375,0.5971637687699406,2.630532794009215
-0.00496359375,0.6189990008511707,2.645046357896955
-0.00496234375,0.6335558222386574,2.666816703728565
-0.00496109375,0.6553910543198775,2.688587049560165
-0.00495984375,0.6735870810542458,2.717614177335655
-0.004958593749999999,0.6990615184823608,2.739384523167274
-0.00495734375,0.728175161257321,2.75752647802694
-0.00495609375,0.7427319826448077,2.775668432886615
-0.00495484375,0.7536495986854227,2.80106716969016
-0.00495359375,0.7864024468072678,2.826465906493705
-0.00495234375,0.8045984735416178,2.837351079409506
-0.00495109375,0.8227945002759846,2.859121425241121
-0.00494984375,0.8373513216634646,2.895405334960454
-0.00494859375,0.8555473483978296,2.899033725932405
-0.004947343749999999,0.881021785825938,2.924432462735959
-0.00494609375,0.8955786072134181,2.942574417595626
-0.00494484375,0.9210530446415198,2.978858327314976
-0.00494359375,0.9465274820696216,2.997000282174651
-0.00494234375,0.9683627141508516,3.022399018978196
-0.00494109375,0.9865587408852017,3.040540973837862
-0.00493984375,1.004754767619568,3.058682928697546
-0.00493859375,1.026589999700788,3.073196492585279
-0.00493734375,1.048425231782028,3.102223620360766
-0.00493609375,1.052064437128912,3.123993966192384
-0.00493484375,1.077538874557002,3.142135921052051
-0.00493359375,1.103013311985104,3.160277875911726
-0.00493234375,1.113930928025719,3.185676612715271
-0.00493109375,1.135766160106949,3.203818567574946
-0.00492984375,1.157601392188169,3.221960522434613
-0.00492859375,1.172158213575665,3.250987650210101
-0.004927343749999999,1.183075829616295,3.269129605069783
-0.00492609375,1.215828677738126,3.283643168957516
-0.00492484375,1.234024704472491,3.309041905761071
-0.00492359375,1.248581525859971,3.330812251592671
-0.00492234375,1.277695168634944,3.341697424508476
-0.00492109375,1.288612784675559,3.374352943255891
-0.00491984375,1.303169606063046,3.392494898115566
-0.00491859375,1.328644043491136,3.4178936349191
-0.00491734375,1.346840070225506,3.432407198806851
-0.004916093749999999,1.357757686266131,3.454177544638469
-0.00491484375,1.379592918347351,3.472319499498136
-0.00491359375,1.394149739734848,3.483204672413948
-0.00491234375,1.415984971816068,3.497718236301681
-0.00491109375,1.426902587856683,3.526745364077161
-0.00490984375,1.445098614591033,3.544887318936828
-0.00490859375,1.459655435978528,3.563029273796511
-0.00490734375,1.488769078753488,3.584799619628112
-0.00490609375,1.50696510548786,3.617455138375536
-0.004904843749999999,1.514243516181613,3.621083529347481
-0.00490359375,1.536078748262833,3.642853875179081
-0.00490234375,1.557913980344063,3.664624221010691
-0.00490109375,1.568831596384678,3.675509393926497
-0.00489984375,1.590666828465908,3.700908130730042
-0.00489859375,1.597945239159648,3.722678476561642
-0.00489734375,1.61614126589401,3.737192040449392
-0.00489609375,1.63797649797523,3.744448822393258
-0.00489484375,1.648894114015855,3.773475950168741
-0.00489359375,1.67072934609709,3.784361123084553
-0.00489234375,1.6816469621377,3.798874686972287
-0.00489109375,1.699842988872059,3.820645032803896
-0.00488984375,1.710760604912674,3.842415378635507
-0.00488859375,1.721678220953289,3.856928942523247
-0.00488734375,1.736235042340769,3.88232767932678
-0.00488609375,1.765348685115749,3.896841243214532
-0.004884843749999999,1.77626630115637,3.911354807102281
-0.00488359375,1.79082312254385,3.933125152933882
-0.00488234375,1.809019149278214,3.947638716821629
-0.00488109375,1.819936765318824,3.962152280709362
-0.00487984375,1.838132792053182,3.980294235569037
-0.00487859375,1.845411202746926,3.998436190428712
-0.00487734375,1.870885640175027,4.012949754316452
-0.00487609375,1.867246434828157,4.03109170917612
-0.00487484375,1.896360077603129,4.049233664035802
-0.004873593749999999,1.903638488296882,4.06374722792355
-0.00487234375,1.925473720378102,4.081889182783216
-0.00487109375,1.929112925724981,4.089145964727095
-0.00486984375,1.943669747112461,4.107287919586762
-0.00486859375,1.954587363153076,4.121801483474503
-0.00486734375,1.976422595234296,4.143571829306102
-0.00486609375,1.980061800581178,4.161713784165787
-0.00486484375,1.987340211274918,4.168970566109653
-0.00486359375,2.009175443356151,4.187112520969333
-0.004862343749999999,2.034649880784253,4.205254475829015
-0.00486109375,2.034649880784253,4.223396430688682
-0.00485984375,2.052845907518611,4.227024821660617
-0.00485859375,2.060124318212354,4.259680340408032
-0.00485734375,2.071041934252969,4.266937122351902
-0.00485609375,2.081959550293579,4.274193904295769
-0.00485484375,2.103794782374814,4.288707468183512
-0.00485359375,2.111073193068555,4.30684942304318
-0.00485234375,2.114712398415429,4.314106204987057
-0.00485109375,2.129269219802919,4.33224815984674
-0.00484984375,2.13654763049666,4.350390114706407
-0.00484859375,2.154743657231018,4.357646896650277
-0.00484734375,2.15838286257789,4.364903678594148
-0.00484609375,2.172939683965376,4.383045633453822
-0.00484484375,2.176578889312246,4.404815979285423
-0.00484359375,2.194774916046606,4.412072761229302
-0.004842343749999999,2.198414121393488,4.426586325117045
-0.00484109375,2.220249353474708,4.430214716088978
-0.00483984375,2.227527764168455,4.437471498032854
-0.00483859375,2.234806174862195,4.451985061920587
-0.00483734375,2.242084585555938,4.466498625808327
-0.00483609375,2.256641406943425,4.481012189696068
-0.00483484375,2.271198228330912,4.495525753583808
-0.00483359375,2.271198228330912,4.506410926499607
-0.00483234375,2.285755049718398,4.520924490387353
-0.004831093749999999,2.289394255065278,4.531809663303163
-0.00482984375,2.307590281799628,4.546323227190898
-0.00482859375,2.311229487146503,4.549951618162841
-0.00482734375,2.318507897840243,4.568093573022507
-0.00482609375,2.329425513880858,4.586235527882183
-0.00482484375,2.333064719227728,4.58260713691025
-0.00482359375,2.351260745962088,4.600749091769923
-0.00482234375,2.358539156655829,4.604377482741856
-0.00482109375,2.35489995130896,4.618891046629598
-0.004819843749999999,2.365817567349575,4.626147828573473
-0.00481859375,2.365817567349575,4.637033001489273
-0.00481734375,2.384013594083934,4.637033001489273
-0.00481609375,2.387652799430805,4.644289783433143
-0.00481484375,2.402209620818292,4.673316911208623
-0.00481359375,2.402209620818292,4.680573693152489
-0.00481234375,2.405848826165164,4.684202084124427
-0.00481109375,2.424044852899514,4.68783047509636
-0.00480984375,2.431323263593265,4.702344038984103
-0.00480859375,2.424044852899527,4.705972429956046
-0.00480734375,2.434962468940137,4.724114384815713
-0.00480609375,2.44224087963388,4.727742775787648
-0.00480484375,2.456797701021367,4.731371166759583
-0.00480359375,2.460436906368239,4.745884730647322
-0.00480234375,2.453158495674499,4.749513121619255
-0.00480109375,2.471354522408854,4.749513121619257
-0.004799843749999999,2.478632933102597,4.774911858422799
-0.00479859375,2.478632933102597,4.767655076478933
-0.00479734375,2.485911343796342,4.782168640366677
-0.00479609375,2.489550549143212,4.789425422310543
-0.00479484375,2.489550549143212,4.803938986198283
-0.00479359375,2.493189754490084,4.803938986198283
-0.00479234375,2.496828959836956,4.800310595226348
-0.00479109375,2.504107370530696,4.803938986198281
-0.00478984375,2.504107370530699,4.814824159114088
-0.004788593749999999,2.51138578122444,4.818452550086025
-0.00478734375,2.507746575877571,4.822080941057958
-0.00478609375,2.515024986571316,4.832966113973766
-0.00478484375,2.518664191918186,4.840222895917632
-0.00478359375,2.525942602611929,4.836594504945698
-0.00478234375,2.518664191918189,4.847479677861497
-0.00478109375,2.525942602611929,4.858364850777308
-0.00477984375,2.533221013305669,4.861993241749241
-0.00477859375,2.529581807958801,4.861993241749243
-0.004777343749999999,2.540499423999414,4.865621632721183
-0.00477609375,2.536860218652544,4.876506805636983
-0.00477484375,2.536860218652544,4.869250023693112
-0.00477359375,2.544138629346287,4.880135196608919
-0.00477234375,2.540499423999416,4.876506805636983
-0.00477109375,2.547777834693156,4.891020369524717
-0.00476984375,2.558695450733774,4.891020369524723
-0.00476859375,2.540499423999424,4.891020369524723
-0.00476734375,2.547777834693159,4.891020369524723
-0.004766093749999999,2.544138629346292,4.901905542440528
-0.00476484375,2.555056245386902,4.901905542440528
-0.00476359375,2.547777834693159,4.898277151468593
-0.00476234375,2.551417040040031,4.905533933412463
-0.00476109375,2.536860218652544,4.898277151468593
-0.00475984375,2.544138629346284,4.909162324384393
-0.00475859375,2.540499423999416,4.909162324384399
-0.004757343749999999,2.547777834693159,4.905533933412463
-0.00475609375,2.547777834693159,4.905533933412463
-0.00475484375,2.547777834693154,4.912790715356332
-0.00475359375,2.536860218652544,4.909162324384399
-0.00475234375,2.544138629346287,4.916419106328268
-0.00475109375,2.544138629346287,4.909162324384399
-0.00474984375,2.540499423999416,4.916419106328268
-0.00474859375,2.547777834693156,4.920047497300201
-0.00474734375,2.533221013305672,4.912790715356333
-0.004746093749999999,2.533221013305674,4.912790715356337
-0.00474484375,2.536860218652544,4.920047497300203
-0.00474359375,2.540499423999407,4.91279071535634
-0.00474234375,2.522303397265057,4.927304279244073
-0.00474109375,2.529581807958801,4.916419106328268
-0.00473984375,2.525942602611931,4.905533933412468
-0.00473859375,2.525942602611929,4.901905542440528
-0.00473734375,2.522303397265059,4.912790715356328
-0.00473609375,2.515024986571314,4.905533933412463
-0.004734843749999999,2.515024986571309,4.905533933412459
-0.00473359375,2.504107370530699,4.898277151468593
-0.00473234375,2.500468165183827,4.909162324384399
-0.00473109375,2.500468165183827,4.894648760496658
-0.00472984375,2.500468165183827,4.898277151468593
-0.00472859375,2.493189754490087,4.89464876049666
-0.00472734375,2.489550549143212,4.883763587580853
-0.00472609375,2.493189754490082,4.887391978552786
-0.00472484375,2.478632933102597,4.887391978552788
-0.004723593749999999,2.478632933102595,4.880135196608917
-0.00472234375,2.474993727755725,4.876506805636983
-0.00472109375,2.46407611171511,4.872878414665048
-0.00471984375,2.449519290327624,4.869250023693112
-0.00471859375,2.453158495674495,4.865621632721178
-0.00471734375,2.453158495674495,4.861993241749245
-0.00471609375,2.445880084980752,4.851108068833438
-0.004714843749999999,2.445880084980742,4.85473645980537
-0.00471359375,2.424044852899522,4.847479677861503
-0.00471234375,2.416766442205777,4.847479677861497
-0.00471109375,2.413127236858907,4.832966113973763
-0.00470984375,2.413127236858907,4.825709332029893
-0.00470859375,2.402209620818292,4.814824159114088
-0.00470734375,2.387652799430805,4.825709332029893
-0.00470609375,2.387652799430805,4.814824159114093
-0.00470484375,2.384013594083934,4.811195768142153
-0.004703593749999999,2.373095978043315,4.800310595226346
-0.00470234375,2.365817567349575,4.796682204254413
-0.00470109375,2.365817567349573,4.789425422310538
-0.00469984375,2.362178362002703,4.778540249394737
-0.00469859375,2.343982335268345,4.771283467450868
-0.00469734375,2.333064719227735,4.771283467450868
-0.00469609375,2.329425513880858,4.764026685506998
-0.00469484375,2.318507897840248,4.774911858422797
-0.00469359375,2.314868692493372,4.749513121619257
-0.004692343749999999,2.303951076452752,4.731371166759583
-0.00469109375,2.293033460412142,4.731371166759583
-0.00468984375,2.282115844371527,4.727742775787648
-0.00468859375,2.282115844371527,4.716857602871842
-0.00468734375,2.263919817637168,4.709600820927973
-0.00468609375,2.260280612290298,4.702344038984107
-0.00468484375,2.249362996249682,4.691458866068298
-0.00468359375,2.245723790902812,4.687830475096364
-0.00468234375,2.22388855882158,4.676945302180558
-0.004681093749999999,2.22752776416844,4.662431738292816
-0.00467984375,2.20205332674035,4.658803347320882
-0.00467859375,2.191135710699735,4.637033001489273
-0.00467734375,2.176578889312248,4.629776219545403
-0.00467609375,2.176578889312248,4.622519437601532
-0.00467484375,2.154743657231028,4.615262655657666
-0.00467359375,2.15838286257789,4.604377482741858
-0.004672343749999999,2.136547630496658,4.593492309826046
-0.00467109375,2.132908425149788,4.578978745938313
-0.00466984375,2.121990809109164,4.568093573022502
-0.00466859375,2.103794782374814,4.557208400106703
-0.00466734375,2.092877166334199,4.553580009134768
-0.00466609375,2.085598755640456,4.539066445247028
-0.00466484375,2.074681139599841,4.520924490387353
-0.00466359375,2.056485112865491,4.510039317471553
-0.00466234375,2.049206702171739,4.510039317471548
-0.004661093749999999,2.038289086131118,4.491897362611871
-0.00465984375,2.023732264743638,4.488268971639938
